<?xml version="1.0" encoding="utf-8"?>
<!-- Generator: Adobe Illustrator 21.0.0, SVG Export Plug-In . SVG Version: 6.00 Build 0)  -->
<svg version="1.1" id="Capa_1" xmlns="http://www.w3.org/2000/svg" xmlns:xlink="http://www.w3.org/1999/xlink" x="0px" y="0px"
	 viewBox="0 0 833.4 174.4" style="enable-background:new 0 0 833.4 174.4;" xml:space="preserve">
<style type="text/css">
	.st0{fill:#014F98;}
	.st1{fill:#FFFFFF;}
	.st2{fill:#E51B68;}
	.st3{fill:#1C374C;}
</style>
<g>
	<g>
		<circle class="st0" cx="99.7" cy="89.8" r="49.6"/>
	</g>
	<g>
		<g>
			<path class="st1" d="M63.6,103.2c2.6,3.5,7,6.9,12.7,9.2c13.7,5.4,14.8,18.4,11.2,23.8c-2.8,4.2-5.8,6.5-10.1,6.2
				c0,0-0.1,0-0.1,0c0.1,0,0.3,0.1,0.4,0.2l13.3,3.8c0,0,0,0,0,0l0,0c5.9-3,9.3-6.8,10.5-13.6c2-11.1-4.6-21.3-16.7-28.6
				c-9.1-5.5-13-9.1-11.9-15.2c1-5.6,6.3-9.4,14.4-7.9c6.9,1.3,11.9,4.7,14.5,7.1l5.2-9.3c-3.7-3.2-10-6.6-17.5-8
				c-5.5-1-10.5-0.7-14.8,0.6L63.6,103.2z"/>
			<path class="st2" d="M76.3,112.4c-1.2-0.5-2.2-1-3.3-1.5c-4.1-2.1-7.3-4.9-9.4-7.7l-0.4,1l-1.4,3.9l1.7,2.6l-3.1,1.2l-0.1,0.2
				l-1.6,4.4l-5.2,14.2c-0.2,0.7-0.2,1.4,0.1,2c0.2,0.6,0.7,1,1.2,1.3c4.1,2,21.5,8.2,22.2,8.5c0,0,0.1,0,0.1,0
				c4.3,0.2,7.3-2,10.1-6.2C91.1,130.8,90.1,117.9,76.3,112.4z"/>
			<path class="st2" d="M133,70.9l-4.2-20c-0.2-1.1-0.5-1.8-0.9-2.3c-0.2-0.2-0.3-0.4-0.5-0.6l-7.6-2.7l0,0
				c-0.1-0.7-0.4-1.3-0.8-1.8c3.2-2.2,13.1-8.5,13.1-16.7c0-1.9-0.8-3.4-2.3-4.4c-1.7-1.1-3.4-1.3-5-0.8c-3.9,1.4-6.4,8-7.3,10.3
				c-1.3,3.3-2.4,6.5-3.7,9c-0.1,0.1-0.1,0.3-0.2,0.4c-1.7,0.1-2.5,0.9-2.5,0.9l0,0l-0.7-0.2c0,0-10.2-3.7-10.5-3.7
				c-1,0-1.7,0.2-2.8,1.2l-15.4,13c-0.1,0.1-0.2,0.1-0.3,0.2l-6.6,18.8c0,0,0,0,0,0c4.3-1.3,9.3-1.7,14.8-0.6c5.5,1,10.3,3.1,14,5.4
				c1.3,0.8,2.5,1.7,3.5,2.6l-5.2,9.3c-2.6-2.4-7.6-5.8-14.5-7.1c-8-1.5-13.3,2.4-14.4,7.9c-0.9,5.2,1.9,8.6,8.1,12.7
				c1.2,0.8,2.3,1.6,3.8,2.5c12.1,7.3,18.7,17.5,16.7,28.6c-1.2,6.9-4.6,10.6-10.5,13.6l0,0l11.3,3.7c1.3,0.5,2.6,0.1,3-0.9
				l6.2-17.4l0.1-0.3l0.2-0.4l-1.6-2.9l3-0.9l0.4-1.2l16.9-47.8l2.5-6.9l0.1-0.2L133,70.9z M114.4,42.4c0.4,0,0.9,0.1,1.4,0.3
				c0.6,0.2,1.1,0.4,1.6,0.8c-0.1,0.2-0.3,0.5-0.6,0.9l-2.8-1C114.2,43.1,114.3,42.7,114.4,42.4z M118.2,44.5
				c0.1,0.1,0.2,0.3,0.2,0.5l-0.5-0.2C118.1,44.7,118.1,44.6,118.2,44.5z M118.2,32.7c2-4.3,3.3-8.6,6.9-9.8
				c1.3-0.4,2.7-0.2,4.1,0.7c1.2,0.8,1.8,1.9,1.8,3.4c0,7.5-9.7,13.9-12.7,15.9c-0.7-0.5-1.5-0.9-2.6-1.2c-0.3-0.1-0.6-0.1-0.9-0.1
				C116.1,38.9,116.9,36,118.2,32.7z M112.4,42.7c0.2-0.1,0.4-0.2,0.8-0.3c-0.1,0.2-0.1,0.3-0.2,0.5L112.4,42.7L112.4,42.7z
				 M113.4,52.1c0,0.1-0.1,0.2-0.1,0.3c0,0.1-0.1,0.1-0.1,0.2c-0.5,1.1-1.8,1.7-3,1.4c-0.3-0.1-0.6-0.2-0.9-0.4
				c-0.5-0.4-0.9-1-1.1-1.6c-0.1-0.5,0-1,0.1-1.5c0.4-1.1,1.4-1.8,2.4-1.8c-0.2,0.6-0.3,0.9-0.3,0.9c-0.1,0.3,0.1,0.7,0.4,0.7
				c0.3,0.1,0.6-0.1,0.7-0.4c0,0,0.1-0.4,0.4-1c0.5,0.2,0.9,0.6,1.1,1c-0.2,0.2-0.3,0.4-0.4,0.5c-0.2,0.2-0.2,0.6,0,0.8l0.1,0.1
				c0.2,0.1,0.5,0.1,0.7-0.1C113.5,51.5,113.5,51.8,113.4,52.1z"/>
		</g>
	</g>
	<g>
		<g>
			<g>
				<path class="st0" d="M181,62.5l22.9,61.4h-13.8l-4.2-12.5h-24.7l-4.2,12.5h-14l21.3-57.3c0.9-2.7,3-4.1,6.2-4.1L181,62.5
					L181,62.5z M164.7,100.9h17.6l-8.8-26.1L164.7,100.9z"/>
				<g>
					<path class="st0" d="M249.4,89.9c-1-6.8-4.1-11.1-9.6-13c-9.3-3.2-17.1-1.2-23.5,5.9V68.6c0-4-2.1-6-6.2-6h-6.3v61.4h12.5V99.4
						c0-7.3,3.2-13.3,10.6-13.3c7.1,0,10.3,5.2,10.3,13.3v24.5h12.4v-12.5c-1-3.2-1.5-6.9-1.5-11.2
						C248.2,96.3,248.6,92.9,249.4,89.9z"/>
				</g>
				<g>
					<path class="st0" d="M317.3,76.1c-13.8,0-22,5.3-24.7,15.9c0.5,2.4,0.7,5.2,0.7,8.2c0,4.4-0.6,8.2-1.6,11.5v12.2h12.7V99
						c0-6.9,3.5-10.5,10.4-10.5h4.2V76.1H317.3z"/>
					<path class="st0" d="M292.6,92.1c-2.2-11.1-9.6-16.7-21.9-16.7c-11.5,0-18.6,4.8-21.3,14.5c-0.8,3-1.2,6.4-1.2,10.3
						c0,4.3,0.5,8,1.5,11.2c2.9,9,9.9,13.6,21,13.6c11,0,18-4.4,21-13.3c1.1-3.2,1.6-7.1,1.6-11.5C293.4,97.2,293.1,94.5,292.6,92.1
						z M270.7,114.2c-6.4,0-9.7-4.7-9.8-14c0-9.5,3.3-14.3,9.9-14.3c6.4,0,9.6,4.6,9.6,13.9C280.2,109.3,277,114.2,270.7,114.2z"/>
				</g>
				<path class="st0" d="M317.7,99.2c0.4-15.4,8.9-23.1,25.6-23.1h1.8v12.5h-4.2c-7,0-10.4,3.5-10.4,10.5v24.8h-12.7V99.2z"/>
				<path class="st0" d="M357.7,88.6h-12.5c1.5-8.8,8-13.2,19.4-13.2c13.7,0,20.7,4.3,21,13.2v16.2c0,13.2-8.3,19-21.7,19.9
					c-11.9,0.9-20.2-4.4-20.2-15c0.3-11.5,8.9-14.5,21.5-15.7c5.4-0.6,8.1-2.2,8.1-4.8c-0.3-2.7-2.9-4.1-8.1-4.1
					C360.8,85.2,358.3,86.3,357.7,88.6z M373.5,104.3v-4.4c-2.9,1.2-6.3,2.2-10,2.9c-5,0.9-7.5,3.2-7.5,6.7c0.3,3.8,2.3,5.6,6.3,5.6
					C369.2,115,373.5,111,373.5,104.3z"/>
			</g>
			<g>
				<path class="st0" d="M422.8,101.3c-1.3-1-2.8-1.9-4.5-2.5c-1.7-0.6-3.4-1.1-5-1.3l-7.6-1.6c-0.9-0.2-2-0.5-3.1-0.9
					c-1.1-0.4-2.1-0.8-3-1.3c-0.8-0.5-1.6-1.1-2.1-1.9c-0.5-0.7-0.7-1.5-0.7-2.5c0-1.2,0.3-2.3,0.8-3.1c0.6-0.8,1.3-1.5,2.3-2.1
					c1-0.6,2.1-1,3.3-1.2c2.8-0.6,5.6-0.5,8,0.2c1.3,0.3,2.5,0.9,3.5,1.6c1,0.7,1.8,1.6,2.4,2.7c0.6,1.1,0.9,2.4,1,4l0,1h7.7l-0.1-1
					c-0.1-2.6-0.7-4.8-1.6-6.8c-1-1.9-2.3-3.6-3.9-4.9c-1.6-1.3-3.5-2.3-5.7-2.9c-3.9-1.1-8.6-1.2-13.3-0.2
					c-2.2,0.5-4.2,1.3-5.9,2.3c-1.8,1.1-3.3,2.5-4.5,4.2c-1.2,1.8-1.7,3.9-1.7,6.4c0,2.1,0.4,3.8,1.1,5.3c0.7,1.4,1.8,2.7,3,3.6
					c1.2,1,2.7,1.8,4.4,2.4c1.6,0.6,3.4,1.2,5.3,1.7l7.3,1.6c1.2,0.3,2.5,0.6,3.7,1c1.2,0.4,2.2,0.9,3.1,1.4c0.8,0.5,1.5,1.2,2,2
					c0.5,0.7,0.7,1.7,0.7,2.8c0,1.4-0.3,2.5-1,3.4c-0.7,1-1.7,1.8-2.8,2.4c-1.2,0.6-2.5,1.1-3.8,1.4c-1.4,0.3-2.8,0.4-4.1,0.4
					c-3.6,0-6.6-0.9-9-2.6c-2.3-1.7-3.6-4.2-3.8-7.7l-0.1-0.9h-7.7l0.1,1.1c0.5,5.8,2.6,10.1,6.2,12.7c3.6,2.6,8.3,3.9,14,3.9
					c2.2,0,4.5-0.2,6.8-0.7c2.3-0.5,4.5-1.3,6.3-2.4c1.9-1.1,3.5-2.6,4.7-4.5c1.3-1.9,1.9-4.2,1.9-6.8c0-2.1-0.4-4-1.3-5.6
					C425.2,103.7,424.1,102.4,422.8,101.3z"/>
				<path class="st0" d="M464,108c-0.9,3.3-2.4,5.9-4.6,7.9c-2.2,1.9-5.2,2.9-9.1,2.9c-2.5,0-4.7-0.5-6.5-1.5
					c-1.8-1-3.3-2.3-4.5-3.9c-1.2-1.6-2.1-3.4-2.6-5.4c-0.5-1.7-0.7-3.3-0.8-4.9h35.9l0-1c0.1-3.2-0.2-6.4-0.9-9.5
					c-0.8-3.2-2-6-3.7-8.4c-1.7-2.5-4-4.5-6.8-6c-2.8-1.5-6.2-2.3-10.1-2.3c-3.8,0-7.2,0.7-10,2.2c-2.8,1.4-5.1,3.3-6.9,5.7
					c-1.8,2.3-3.1,5-3.9,7.9c-0.8,2.9-1.3,5.9-1.3,9c0,3.3,0.4,6.4,1.3,9.4c0.8,3,2.2,5.6,3.9,7.9c1.8,2.3,4.1,4.1,6.9,5.4
					c2.8,1.3,6.2,2,10,2c6.1,0,11-1.5,14.4-4.4c3.4-2.9,5.7-7.1,7-12.4l0.3-1.2h-7.7L464,108z M464.1,96.5h-28
					c0.3-1.6,0.7-3.1,1.3-4.6c0.7-1.8,1.7-3.5,2.9-4.8c1.2-1.4,2.6-2.5,4.3-3.3c1.7-0.8,3.6-1.2,5.8-1.2c2.1,0,4.1,0.4,5.7,1.2
					c1.7,0.8,3.1,2,4.3,3.3c1.2,1.4,2.1,3,2.8,4.8C463.6,93.3,463.9,94.9,464.1,96.5z"/>
				<path class="st0" d="M508.3,82.7c-0.2-0.3-0.5-0.6-0.8-0.9c-1-1.2-2.3-2.2-3.6-3.1c-1.3-0.9-2.8-1.6-4.5-2.1
					c-1.6-0.5-3.4-0.7-5.2-0.7c-3.5,0-6.7,0.6-9.4,1.9c-2.7,1.2-5.1,3-7,5.1c-1.9,2.1-3.3,4.7-4.3,7.6c-1,2.8-1.5,5.9-1.5,9.1
					c0,3.3,0.4,6.4,1.2,9.3c0.8,2.9,2.1,5.5,4,7.7c1.8,2.2,4.1,3.9,6.9,5.2c2.8,1.2,6.1,1.9,10,1.9c3.6,0,6.8-0.9,9.6-2.7
					c1.8-1.2,3.3-2.6,4.5-4.2v2.8c0,5.2-1.1,9.2-3.3,11.9c-2.1,2.6-5.8,4-10.7,4c-1.5,0-3-0.2-4.4-0.5c-1.4-0.3-2.7-0.8-3.8-1.4
					c-1.1-0.6-2.1-1.5-2.9-2.5c-0.8-1-1.3-2.3-1.6-3.8l-0.1-0.8h-7.6l0.1,1.1c0.2,2.5,0.9,4.8,2.2,6.6c1.3,1.8,2.8,3.3,4.7,4.5
					c1.9,1.2,4,2,6.3,2.6c2.3,0.5,4.7,0.8,7.1,0.8c3.9,0,7.3-0.5,10-1.5c2.8-1,5.1-2.6,6.8-4.5c1.7-2,3-4.4,3.8-7.2
					c0.8-2.7,1.2-5.9,1.2-9.2V77.2h-7.7V82.7z M505,88c1.1,1.7,2,3.6,2.5,5.7c0.5,2.1,0.8,4.3,0.8,6.4c0,2.2-0.3,4.3-0.9,6.3
					c-0.6,2-1.5,3.8-2.7,5.4c-1.2,1.5-2.7,2.8-4.4,3.7c-1.7,0.9-3.7,1.4-6,1.4c-2.5,0-4.6-0.5-6.4-1.4c-1.8-0.9-3.3-2.2-4.5-3.7
					c-1.2-1.5-2.1-3.4-2.6-5.4c-0.6-2-0.9-4.2-0.9-6.3c0-2.2,0.3-4.4,0.8-6.6c0.5-2.1,1.4-4,2.6-5.6c1.2-1.6,2.7-2.9,4.5-3.9
					c1.8-1,4-1.5,6.5-1.5c2.5,0,4.7,0.5,6.4,1.5C502.4,85,503.9,86.4,505,88z"/>
				<path class="st0" d="M553.9,101.7c0,2.2-0.3,4.3-0.8,6.4c-0.5,2.1-1.3,3.9-2.4,5.5c-1.1,1.6-2.4,2.8-4,3.7
					c-1.6,0.9-3.6,1.4-5.8,1.4c-4.2,0-7.2-0.9-8.8-2.8c-1.7-1.9-2.6-4.8-2.7-8.6V77.2h-7.7v30.1c0,2.8,0.3,5.2,0.9,7.4
					c0.6,2.2,1.7,4.1,3.1,5.7c1.4,1.6,3.2,2.8,5.5,3.6c2.2,0.8,4.9,1.2,7.9,1.2c3.7,0,7-0.8,10-2.5c2.1-1.2,3.8-2.7,5.3-4.6v5.9h7.3
					V77.2h-7.7V101.7z"/>
				<path class="st0" d="M591.4,84l1,0v-7.5l-1,0c-4.4-0.2-8.3,0.8-11.5,2.9c-2.2,1.4-4,3.2-5.4,5.5v-7.7h-7.3v46.9h7.7V99.1
					c0-2.2,0.4-4.3,1.2-6.2c0.8-1.9,1.9-3.5,3.3-4.8c1.4-1.4,3.2-2.4,5.1-3.1C586.7,84.2,588.9,83.9,591.4,84z"/>
				<path class="st0" d="M629,83.3c-2-2.2-4.4-4.1-7.3-5.4c-2.9-1.3-6.2-2-9.9-2c-3.7,0-7,0.7-9.9,2c-2.9,1.3-5.3,3.1-7.3,5.4
					c-2,2.2-3.4,4.9-4.5,7.9c-1,3-1.5,6.2-1.5,9.5c0,3.3,0.5,6.5,1.5,9.5c1,3,2.5,5.6,4.5,7.9c2,2.2,4.4,4,7.3,5.3
					c2.9,1.3,6.2,2,9.9,2c3.7,0,7-0.7,9.9-2c2.9-1.3,5.3-3.1,7.3-5.3c1.9-2.2,3.4-4.9,4.5-7.9c1-3,1.5-6.2,1.5-9.5
					c0-3.3-0.5-6.5-1.5-9.5C632.5,88.1,631,85.5,629,83.3z M627.3,100.6c0,2.3-0.3,4.5-1,6.7c-0.7,2.2-1.6,4.1-2.9,5.8
					c-1.3,1.7-2.9,3-4.8,4.1c-1.9,1-4.1,1.5-6.7,1.5c-2.5,0-4.8-0.5-6.7-1.5c-1.9-1-3.5-2.4-4.8-4.1c-1.3-1.7-2.3-3.7-2.9-5.8
					c-0.7-2.2-1-4.4-1-6.7c0-2.3,0.3-4.5,1-6.7c0.7-2.2,1.6-4.1,2.9-5.8c1.3-1.7,2.9-3,4.8-4.1c1.9-1,4.1-1.5,6.7-1.5
					c2.5,0,4.8,0.5,6.7,1.5c1.9,1,3.5,2.4,4.8,4.1c1.3,1.7,2.3,3.7,2.9,5.8C627,96.1,627.3,98.3,627.3,100.6z"/>
				<path class="st0" d="M674.5,105.3c-0.8-1.6-2-2.9-3.3-4c-1.3-1-2.8-1.9-4.5-2.5c-1.7-0.6-3.4-1.1-5-1.3l-7.6-1.6
					c-0.9-0.2-2-0.5-3.1-0.9c-1.1-0.4-2.1-0.8-3-1.3c-0.8-0.5-1.6-1.1-2.1-1.9c-0.5-0.7-0.8-1.5-0.8-2.5c0-1.2,0.3-2.3,0.8-3.1
					c0.6-0.8,1.3-1.5,2.3-2.1c1-0.6,2.1-1,3.3-1.2c2.8-0.6,5.6-0.5,8,0.2c1.3,0.3,2.5,0.9,3.5,1.6c1,0.7,1.8,1.6,2.4,2.8
					c0.6,1.1,0.9,2.4,1,4l0,1h7.7l-0.1-1c-0.1-2.6-0.7-4.8-1.6-6.8c-1-1.9-2.3-3.6-3.9-4.9c-1.6-1.3-3.5-2.3-5.7-2.9
					c-3.9-1.1-8.6-1.2-13.3-0.2c-2.2,0.5-4.2,1.3-5.9,2.3c-1.8,1.1-3.3,2.5-4.5,4.2c-1.2,1.8-1.7,3.9-1.7,6.4c0,2.1,0.4,3.8,1.1,5.3
					c0.7,1.4,1.8,2.7,3,3.6c1.2,1,2.7,1.8,4.4,2.4c1.6,0.6,3.4,1.2,5.3,1.7l7.3,1.6c1.2,0.3,2.5,0.6,3.7,1c1.2,0.4,2.2,0.9,3.1,1.4
					c0.8,0.5,1.5,1.2,2,2c0.5,0.7,0.7,1.7,0.7,2.8c0,1.4-0.3,2.5-1,3.4c-0.7,1-1.7,1.8-2.8,2.4c-1.2,0.6-2.5,1.1-3.8,1.4
					c-1.4,0.3-2.8,0.4-4.1,0.4c-3.6,0-6.6-0.9-9-2.6c-2.3-1.7-3.6-4.2-3.8-7.7l-0.1-0.9h-7.7l0.1,1.1c0.5,5.8,2.6,10.1,6.2,12.7
					c3.6,2.6,8.3,3.9,14,3.9c2.2,0,4.5-0.2,6.8-0.7c2.3-0.5,4.5-1.3,6.3-2.4c1.9-1.1,3.5-2.7,4.7-4.5c1.3-1.9,1.9-4.2,1.9-6.8
					C675.8,108.7,675.3,106.9,674.5,105.3z"/>
			</g>
			<g>
				<path class="st0" d="M687.1,112.8c1.6,0,3,0.5,4.1,1.5c1.1,1,1.6,2.2,1.6,3.7c0,1.5-0.5,2.8-1.6,3.7s-2.4,1.5-4.1,1.5
					c-1.7,0-3-0.5-4.1-1.5c-1.1-1-1.6-2.2-1.6-3.7c0-1.5,0.5-2.7,1.6-3.7C684.1,113.3,685.5,112.8,687.1,112.8z"/>
				<path class="st0" d="M709.5,89.6l0.3,3.9c2.4-3,5.5-4.5,9.5-4.5c4.2,0,7,1.7,8.5,5c2.3-3.3,5.5-5,9.8-5
					c6.7,0,10.2,4.1,10.4,12.2v21.6h-10.4v-21c0-1.7-0.3-2.9-0.9-3.7c-0.6-0.8-1.6-1.2-3.1-1.2c-2,0-3.6,0.9-4.6,2.7l0,0.4v22.7
					h-10.4v-20.9c0-1.7-0.3-3-0.8-3.8c-0.6-0.8-1.6-1.2-3.2-1.2c-2,0-3.5,0.9-4.5,2.7v23.1h-10.4V89.6H709.5z"/>
				<path class="st0" d="M767.4,98.8l4.8-9.2h10.8l-8.8,16.2l9.2,17h-10.8l-5.2-9.8l-5.1,9.8h-10.9l9.2-17l-8.7-16.2h10.9
					L767.4,98.8z"/>
			</g>
		</g>
		<g>
			<path class="st3" d="M542.6,133.4h-5.3V148h-2.1v-14.6h-5.2v-1.8h12.7V133.4z"/>
			<path class="st3" d="M550.9,146.8c-0.8,1-2,1.4-3.6,1.4c-1.3,0-2.3-0.4-3-1.1c-0.7-0.8-1-1.9-1-3.3v-7.9h2.1v7.9
				c0,1.8,0.7,2.8,2.2,2.8c1.6,0,2.6-0.6,3.2-1.8v-8.8h2.1V148h-2L550.9,146.8z"/>
			<path class="st3" d="M568.4,144.8c0-0.6-0.2-1-0.6-1.3c-0.4-0.3-1.2-0.6-2.2-0.8c-1.1-0.2-1.9-0.5-2.5-0.8
				c-0.6-0.3-1.1-0.7-1.4-1.1c-0.3-0.4-0.4-1-0.4-1.5c0-1,0.4-1.8,1.3-2.5c0.8-0.7,1.9-1,3.2-1c1.4,0,2.5,0.4,3.4,1.1
				c0.9,0.7,1.3,1.6,1.3,2.7h-2.1c0-0.6-0.2-1.1-0.7-1.5c-0.5-0.4-1.1-0.6-1.8-0.6c-0.8,0-1.3,0.2-1.8,0.5c-0.4,0.3-0.6,0.8-0.6,1.3
				c0,0.5,0.2,0.9,0.6,1.1c0.4,0.3,1.1,0.5,2.2,0.7c1,0.2,1.9,0.5,2.5,0.8c0.6,0.3,1.1,0.7,1.4,1.2c0.3,0.5,0.5,1,0.5,1.7
				c0,1.1-0.4,2-1.3,2.6c-0.9,0.7-2,1-3.4,1c-1,0-1.8-0.2-2.6-0.5c-0.7-0.3-1.3-0.8-1.8-1.4c-0.4-0.6-0.6-1.3-0.6-2h2.1
				c0,0.7,0.3,1.2,0.8,1.7c0.5,0.4,1.2,0.6,2.1,0.6c0.8,0,1.4-0.2,1.9-0.5C568.1,145.7,568.4,145.3,568.4,144.8z"/>
			<path class="st3" d="M578,148.2c-1.6,0-3-0.5-4-1.6s-1.6-2.5-1.6-4.3v-0.4c0-1.2,0.2-2.3,0.7-3.2c0.5-0.9,1.1-1.7,1.9-2.2
				c0.8-0.5,1.7-0.8,2.7-0.8c1.6,0,2.8,0.5,3.7,1.6c0.9,1,1.3,2.5,1.3,4.5v0.9h-8.2c0,1.2,0.4,2.2,1.1,2.9c0.7,0.7,1.5,1.1,2.6,1.1
				c0.7,0,1.4-0.1,1.9-0.4c0.5-0.3,1-0.7,1.3-1.2l1.3,1C581.5,147.5,580,148.2,578,148.2z M577.7,137.3c-0.8,0-1.5,0.3-2.1,0.9
				c-0.6,0.6-0.9,1.5-1.1,2.6h6.1v-0.2c-0.1-1.1-0.3-1.9-0.9-2.5C579.3,137.6,578.6,137.3,577.7,137.3z"/>
			<path class="st3" d="M584.4,141.8c0-1.9,0.4-3.4,1.3-4.5c0.9-1.1,2-1.7,3.5-1.7c1.5,0,2.6,0.5,3.5,1.6l0.1-1.3h1.9v11.9
				c0,1.6-0.5,2.8-1.4,3.7c-0.9,0.9-2.2,1.4-3.8,1.4c-0.9,0-1.7-0.2-2.6-0.6c-0.8-0.4-1.5-0.9-1.9-1.5l1.1-1.2
				c0.9,1.1,2,1.7,3.3,1.7c1,0,1.8-0.3,2.4-0.9c0.6-0.6,0.8-1.4,0.8-2.4v-1c-0.8,1-2,1.4-3.4,1.4c-1.4,0-2.6-0.6-3.5-1.7
				C584.8,145.4,584.4,143.8,584.4,141.8z M586.5,142.1c0,1.4,0.3,2.4,0.8,3.2c0.6,0.8,1.3,1.2,2.4,1.2c1.3,0,2.3-0.6,2.9-1.8v-5.6
				c-0.6-1.2-1.6-1.7-2.9-1.7c-1,0-1.8,0.4-2.4,1.2C586.8,139.4,586.5,140.5,586.5,142.1z"/>
			<path class="st3" d="M605.1,146.8c-0.8,1-2,1.4-3.6,1.4c-1.3,0-2.3-0.4-3-1.1c-0.7-0.8-1-1.9-1-3.3v-7.9h2.1v7.9
				c0,1.8,0.7,2.8,2.2,2.8c1.6,0,2.6-0.6,3.2-1.8v-8.8h2.1V148h-2L605.1,146.8z"/>
			<path class="st3" d="M615.9,137.7c-0.3-0.1-0.7-0.1-1-0.1c-1.4,0-2.3,0.6-2.8,1.7v8.6H610v-12.2h2l0,1.4c0.7-1.1,1.6-1.6,2.9-1.6
				c0.4,0,0.7,0.1,0.9,0.2V137.7z"/>
			<path class="st3" d="M616.8,141.8c0-1.2,0.2-2.3,0.7-3.2c0.5-1,1.1-1.7,2-2.2c0.8-0.5,1.8-0.8,2.9-0.8c1.7,0,3,0.6,4,1.7
				c1,1.1,1.5,2.7,1.5,4.6v0.1c0,1.2-0.2,2.2-0.7,3.2c-0.5,0.9-1.1,1.7-1.9,2.2c-0.8,0.5-1.8,0.8-2.9,0.8c-1.6,0-3-0.6-4-1.7
				c-1-1.1-1.5-2.7-1.5-4.6V141.8z M618.9,142.1c0,1.3,0.3,2.4,0.9,3.2c0.6,0.8,1.5,1.2,2.5,1.2c1.1,0,1.9-0.4,2.5-1.2
				c0.6-0.8,0.9-2,0.9-3.5c0-1.3-0.3-2.4-1-3.2c-0.6-0.8-1.5-1.2-2.5-1.2c-1,0-1.9,0.4-2.5,1.2C619.2,139.4,618.9,140.6,618.9,142.1
				z"/>
			<path class="st3" d="M643.2,148c-0.1-0.2-0.2-0.7-0.3-1.3c-1,1-2.1,1.5-3.5,1.5c-1.2,0-2.2-0.3-2.9-1c-0.8-0.7-1.2-1.5-1.2-2.6
				c0-1.3,0.5-2.2,1.4-2.9c1-0.7,2.3-1.1,4.1-1.1h2v-1c0-0.7-0.2-1.3-0.7-1.7c-0.4-0.4-1.1-0.6-1.9-0.6c-0.7,0-1.4,0.2-1.9,0.6
				c-0.5,0.4-0.8,0.8-0.8,1.4h-2.1c0-0.6,0.2-1.2,0.6-1.8c0.4-0.6,1-1,1.8-1.3c0.7-0.3,1.5-0.5,2.4-0.5c1.4,0,2.5,0.4,3.3,1.1
				s1.2,1.7,1.2,2.9v5.6c0,1.1,0.1,2,0.4,2.7v0.2H643.2z M639.8,146.4c0.7,0,1.3-0.2,1.9-0.5c0.6-0.3,1-0.8,1.3-1.3v-2.5h-1.6
				c-2.5,0-3.8,0.7-3.8,2.2c0,0.7,0.2,1.2,0.7,1.5C638.5,146.2,639.1,146.4,639.8,146.4z"/>
			<path class="st3" d="M650.3,148h-2.1v-17.3h2.1V148z"/>
			<path class="st3" d="M660.8,135.9l0.1,1.3c0.9-1,2.1-1.6,3.6-1.6c1.7,0,2.9,0.7,3.5,2c0.4-0.6,0.9-1.1,1.6-1.4
				c0.6-0.4,1.4-0.5,2.3-0.5c2.7,0,4,1.4,4.1,4.2v8.1h-2.1v-8c0-0.9-0.2-1.5-0.6-1.9c-0.4-0.4-1.1-0.6-2-0.6c-0.8,0-1.4,0.2-1.9,0.7
				c-0.5,0.5-0.8,1.1-0.9,1.9v8.1h-2.1v-8c0-1.8-0.9-2.7-2.6-2.7c-1.4,0-2.3,0.6-2.8,1.7v8.9h-2.1v-12.2H660.8z"/>
			<path class="st3" d="M683.8,148.2c-1.6,0-3-0.5-4-1.6s-1.6-2.5-1.6-4.3v-0.4c0-1.2,0.2-2.3,0.7-3.2c0.5-0.9,1.1-1.7,1.9-2.2
				c0.8-0.5,1.7-0.8,2.7-0.8c1.6,0,2.8,0.5,3.7,1.6c0.9,1,1.3,2.5,1.3,4.5v0.9h-8.2c0,1.2,0.4,2.2,1.1,2.9c0.7,0.7,1.5,1.1,2.6,1.1
				c0.7,0,1.4-0.1,1.9-0.4c0.5-0.3,1-0.7,1.3-1.2l1.3,1C687.4,147.5,685.9,148.2,683.8,148.2z M683.6,137.3c-0.8,0-1.5,0.3-2.1,0.9
				c-0.6,0.6-0.9,1.5-1.1,2.6h6.1v-0.2c-0.1-1.1-0.3-1.9-0.9-2.5C685.1,137.6,684.4,137.3,683.6,137.3z"/>
			<path class="st3" d="M692.9,135.9v13.6c0,2.3-1.1,3.5-3.2,3.5c-0.5,0-0.9-0.1-1.3-0.2v-1.7c0.2,0.1,0.6,0.1,0.9,0.1
				c0.5,0,0.8-0.1,1.1-0.4c0.2-0.3,0.4-0.7,0.4-1.3v-13.6H692.9z M690.6,132.6c0-0.3,0.1-0.6,0.3-0.8c0.2-0.2,0.5-0.4,0.9-0.4
				c0.4,0,0.7,0.1,0.9,0.3c0.2,0.2,0.3,0.5,0.3,0.9c0,0.3-0.1,0.6-0.3,0.8c-0.2,0.2-0.5,0.3-0.9,0.3c-0.4,0-0.7-0.1-0.9-0.3
				S690.6,133,690.6,132.6z"/>
			<path class="st3" d="M695.4,141.8c0-1.2,0.2-2.3,0.7-3.2c0.5-1,1.1-1.7,2-2.2c0.8-0.5,1.8-0.8,2.9-0.8c1.7,0,3,0.6,4,1.7
				c1,1.1,1.5,2.7,1.5,4.6v0.1c0,1.2-0.2,2.2-0.7,3.2c-0.5,0.9-1.1,1.7-1.9,2.2c-0.8,0.5-1.8,0.8-2.9,0.8c-1.6,0-3-0.6-4-1.7
				c-1-1.1-1.5-2.7-1.5-4.6V141.8z M697.5,142.1c0,1.3,0.3,2.4,0.9,3.2c0.6,0.8,1.5,1.2,2.5,1.2c1.1,0,1.9-0.4,2.5-1.2
				c0.6-0.8,0.9-2,0.9-3.5c0-1.3-0.3-2.4-1-3.2c-0.6-0.8-1.5-1.2-2.5-1.2c-1,0-1.9,0.4-2.5,1.2C697.8,139.4,697.5,140.6,697.5,142.1
				z"/>
			<path class="st3" d="M714.8,137.7c-0.3-0.1-0.7-0.1-1-0.1c-1.4,0-2.3,0.6-2.8,1.7v8.6h-2.1v-12.2h2l0,1.4
				c0.7-1.1,1.6-1.6,2.9-1.6c0.4,0,0.7,0.1,0.9,0.2V137.7z"/>
			<path class="st3" d="M732.2,142.1c0,1.8-0.4,3.3-1.3,4.5c-0.8,1.1-2,1.7-3.4,1.7c-1.5,0-2.6-0.5-3.5-1.4v5.9h-2.1v-16.8h1.9
				l0.1,1.3c0.8-1,2-1.6,3.5-1.6c1.5,0,2.6,0.6,3.5,1.7c0.9,1.1,1.3,2.6,1.3,4.6V142.1z M730.1,141.8c0-1.4-0.3-2.5-0.9-3.2
				c-0.6-0.8-1.4-1.2-2.4-1.2c-1.3,0-2.2,0.6-2.8,1.7v5.8c0.6,1.1,1.6,1.7,2.9,1.7c1,0,1.8-0.4,2.4-1.2
				C729.8,144.6,730.1,143.4,730.1,141.8z"/>
			<path class="st3" d="M740.5,137.7c-0.3-0.1-0.7-0.1-1-0.1c-1.4,0-2.3,0.6-2.8,1.7v8.6h-2.1v-12.2h2l0,1.4
				c0.7-1.1,1.6-1.6,2.9-1.6c0.4,0,0.7,0.1,0.9,0.2V137.7z"/>
			<path class="st3" d="M747,148.2c-1.6,0-3-0.5-4-1.6s-1.6-2.5-1.6-4.3v-0.4c0-1.2,0.2-2.3,0.7-3.2c0.5-0.9,1.1-1.7,1.9-2.2
				c0.8-0.5,1.7-0.8,2.7-0.8c1.6,0,2.8,0.5,3.7,1.6c0.9,1,1.3,2.5,1.3,4.5v0.9h-8.2c0,1.2,0.4,2.2,1.1,2.9c0.7,0.7,1.5,1.1,2.6,1.1
				c0.7,0,1.4-0.1,1.9-0.4c0.5-0.3,1-0.7,1.3-1.2l1.3,1C750.5,147.5,749,148.2,747,148.2z M746.7,137.3c-0.8,0-1.5,0.3-2.1,0.9
				s-0.9,1.5-1.1,2.6h6.1v-0.2c-0.1-1.1-0.3-1.9-0.9-2.5C748.3,137.6,747.6,137.3,746.7,137.3z"/>
			<path class="st3" d="M758.8,146.5c0.7,0,1.4-0.2,1.9-0.7c0.6-0.4,0.9-1,0.9-1.7h2c0,0.7-0.3,1.4-0.7,2s-1,1.1-1.8,1.5
				c-0.7,0.4-1.5,0.6-2.3,0.6c-1.7,0-3-0.6-3.9-1.7c-1-1.1-1.5-2.6-1.5-4.5v-0.3c0-1.2,0.2-2.2,0.7-3.2c0.4-0.9,1.1-1.6,1.9-2.1
				c0.8-0.5,1.8-0.8,2.9-0.8c1.4,0,2.5,0.4,3.4,1.2c0.9,0.8,1.4,1.9,1.4,3.2h-2c-0.1-0.8-0.4-1.4-0.9-1.9c-0.5-0.5-1.2-0.8-2-0.8
				c-1.1,0-1.9,0.4-2.5,1.1s-0.9,1.9-0.9,3.3v0.4c0,1.4,0.3,2.5,0.9,3.2C756.9,146.2,757.7,146.5,758.8,146.5z"/>
			<path class="st3" d="M765.7,132.6c0-0.3,0.1-0.6,0.3-0.9c0.2-0.2,0.5-0.3,0.9-0.3c0.4,0,0.7,0.1,0.9,0.3c0.2,0.2,0.3,0.5,0.3,0.9
				c0,0.3-0.1,0.6-0.3,0.8c-0.2,0.2-0.5,0.3-0.9,0.3c-0.4,0-0.7-0.1-0.9-0.3S765.7,133,765.7,132.6z M768,148h-2.1v-12.2h2.1V148z"
				/>
			<path class="st3" d="M770.5,141.8c0-1.2,0.2-2.3,0.7-3.2c0.5-1,1.1-1.7,2-2.2c0.8-0.5,1.8-0.8,2.9-0.8c1.7,0,3,0.6,4,1.7
				c1,1.1,1.5,2.7,1.5,4.6v0.1c0,1.2-0.2,2.2-0.7,3.2c-0.5,0.9-1.1,1.7-1.9,2.2c-0.8,0.5-1.8,0.8-2.9,0.8c-1.6,0-3-0.6-4-1.7
				c-1-1.1-1.5-2.7-1.5-4.6V141.8z M772.6,142.1c0,1.3,0.3,2.4,0.9,3.2c0.6,0.8,1.5,1.2,2.5,1.2c1.1,0,1.9-0.4,2.5-1.2
				c0.6-0.8,0.9-2,0.9-3.5c0-1.3-0.3-2.4-1-3.2c-0.6-0.8-1.5-1.2-2.5-1.2c-1,0-1.9,0.4-2.5,1.2C772.9,139.4,772.6,140.6,772.6,142.1
				z"/>
		</g>
	</g>
</g>
</svg>
