<?xml version="1.0" encoding="utf-8"?>
<!-- Generator: Adobe Illustrator 24.0.2, SVG Export Plug-In . SVG Version: 6.00 Build 0)  -->
<svg version="1.1" id="Capa_1" xmlns="http://www.w3.org/2000/svg" xmlns:xlink="http://www.w3.org/1999/xlink" x="0px" y="0px"
	 viewBox="0 0 119.97 38.64" style="enable-background:new 0 0 119.97 38.64;" xml:space="preserve">
<g>
	<path style="fill:#01C1D6;" d="M68.0564,14.2854c0,4.657,0,9.314,0,13.971c0,0.2395-0.0599,0.2845-0.2845,0.2845
		c-1.3177-0.015-2.6205-0.015-3.9383,0c-0.1797,0-0.2096-0.045-0.2096-0.2246c0-9.3589,0-18.7328,0-28.0917
		C63.6241,0.0449,63.669,0,63.8487,0c1.3177,0.015,2.6355,0.015,3.9682,0c0.2096,0,0.2546,0.0599,0.2546,0.2546
		C68.0564,4.9265,68.0564,9.6134,68.0564,14.2854z"/>
	<path style="fill:#01C1D6;" d="M74.8997,14.9592c0.614-0.015,1.183,0.1348,1.7071,0.4791
		c0.5391,0.3744,0.7486,0.9134,0.7486,1.5573c0,0.0899-0.0298,0.1198-0.1198,0.1198c-0.2096,0-0.4043-0.015-0.6139,0
		c-0.1348,0-0.1498-0.0749-0.1498-0.1647c-0.1198-0.8236-0.6439-1.123-1.4076-1.183c-0.2994-0.015-0.584,0-0.8684,0.0899
		c-0.4193,0.1348-0.7038,0.524-0.7338,0.9284c-0.015,0.4492,0.1497,0.7188,0.569,0.8685c0.599,0.2096,1.2279,0.3295,1.8418,0.4791
		c0.1797,0.045,0.3594,0.0899,0.5391,0.1647c0.6439,0.2395,1.0482,0.6739,1.1231,1.3626c0.0749,0.8086-0.0898,1.5424-0.8986,1.9466
		c-0.9883,0.5091-2.0365,0.584-3.0547,0.1348c-0.8236-0.3594-1.198-1.0482-1.2279-1.9466c0-0.1049,0.015-0.1647,0.1347-0.1497
		c0.0299,0,0.0599,0,0.0898,0c0.1947,0,0.4043-0.0599,0.569,0.015c0.1797,0.0749,0.1049,0.3295,0.1498,0.5091
		c0.1497,0.5091,0.4792,0.8236,0.9733,0.9584c0.6289,0.1647,1.2429,0.1348,1.8269-0.1497c0.4193-0.2096,0.569-0.554,0.554-1.0183
		c-0.0299-0.4043-0.2396-0.6439-0.599-0.7936c-0.554-0.2395-1.138-0.3145-1.707-0.4642c-0.2696-0.0749-0.5392-0.1348-0.7937-0.2395
		c-0.7487-0.2995-1.0931-0.9284-0.9733-1.7221c0.1797-1.0931,0.9584-1.7669,2.0964-1.7819
		C74.75,14.9592,74.8248,14.9592,74.8997,14.9592z"/>
	<path style="fill:#01C1D6;" d="M92.135,21.2035c-0.4941,0.6439-1.138,0.8086-1.8867,0.7188
		c-0.7187-0.0899-1.1979-0.614-1.1979-1.3776c-0.015-1.153,0-2.306-0.015-3.459c0-0.1198,0.0299-0.1497,0.1497-0.1497
		c0.2246,0.015,0.5241-0.0899,0.6589,0.045c0.1347,0.1198,0.0449,0.4193,0.0449,0.6439c0,0.8535,0,1.6921,0,2.5456
		c0,0.1797,0.015,0.3444,0.0749,0.5091c0.1498,0.4642,0.6588,0.6589,1.2279,0.4791c0.5989-0.1946,0.7786-0.6739,0.8385-1.2279
		c0.1049-0.9284,0.0299-1.8418,0.045-2.7703c0-0.1647,0.0299-0.2395,0.2096-0.2246c0.1498,0.015,0.3145,0.015,0.4792,0
		c0.1348,0,0.1647,0.045,0.1647,0.1647c0,1.5124,0,3.0398,0,4.5522c0,0.1348-0.0449,0.1946-0.1797,0.1797
		c-0.1947-0.015-0.4792,0.0899-0.584-0.045C92.0452,21.6677,92.135,21.4131,92.135,21.2035z"/>
	<path style="fill:#01C1D6;" d="M81.7729,11.8447c-0.569,0.8086-1.3477,0.9134-2.1263,0.7188
		c-0.5841-0.1497-0.9434-0.6889-0.9584-1.3926c-0.015-1.123,0-2.2461-0.015-3.3692c0-0.1198,0.0299-0.1647,0.1498-0.1647
		c0.1797,0.015,0.3443,0.015,0.524,0c0.1498-0.015,0.1797,0.0299,0.1797,0.1797c0,0.9584,0,1.9317,0,2.89
		c0,0.0599,0,0.1048,0,0.1647c0,0.524,0.2096,0.8835,0.584,0.9883c0.5091,0.1497,1.0631-0.0599,1.3177-0.4791
		c0.2246-0.3744,0.2696-0.7786,0.2845-1.1979c0.015-0.7786,0.015-1.5424,0-2.321c0-0.1647,0.0299-0.2246,0.2096-0.2096
		c0.2097,0.015,0.4792-0.0599,0.599,0.0299c0.1347,0.1198,0.0449,0.4043,0.0449,0.614c0,1.3327,0,2.6654,0,4.0131
		c0,0.1647-0.0299,0.2546-0.2246,0.2246c-0.1947-0.0299-0.4492,0.0899-0.5541-0.0599
		C81.698,12.3388,81.7729,12.0992,81.7729,11.8447z"/>
	<path style="fill:#01C1D6;" d="M71.9347,36.2078c0.3744-1.0781,0.7338-2.0964,1.0781-3.1146
		c0.045-0.1348,0.1049-0.1946,0.2396-0.1797c0.3295,0.015,0.6589,0,1.0033,0c0.0449,0,0.1198-0.015,0.1347,0.0599
		c0.015,0.0899-0.0599,0.0899-0.1198,0.1048c-0.3444,0.0899-0.3444,0.0899-0.3444,0.4492c0,1.0931,0,2.1862,0,3.2794
		c0,0.2395,0.0898,0.3444,0.3144,0.3744c0.0749,0,0.1648,0,0.1648,0.0899c0,0.1348-0.1198,0.0749-0.1797,0.0749
		c-0.4343,0-0.8535,0-1.2879,0c-0.0599,0-0.1647,0.0299-0.1647-0.0749s0.0898-0.1049,0.1498-0.1049
		c0.2395-0.015,0.3144-0.1497,0.2994-0.3744c-0.015-1.0931,0-2.1862-0.0449-3.2944c-0.1947,0.5391-0.3893,1.0931-0.584,1.6322
		c-0.2247,0.6439-0.4492,1.2728-0.6739,1.9167c-0.0299,0.1048-0.0599,0.1946-0.2096,0.1946c-0.1648,0-0.1797-0.1049-0.2097-0.1946
		c-0.4043-1.138-0.8236-2.2761-1.2279-3.4141c-0.015-0.0299-0.0299-0.0749-0.0898-0.1048c0,0.0599,0,0.1048,0,0.1647
		c0,1.0033,0,1.9915,0,2.9949c0,0.4044,0,0.4044,0.3893,0.5091c0.0599,0.015,0.1199,0.015,0.1199,0.0899
		c0,0.0899-0.06,0.0749-0.1199,0.0749c-0.3444,0-0.6738,0-1.0182,0c-0.0599,0-0.1198,0-0.1198-0.0749
		c0-0.0749,0.0599-0.0899,0.1198-0.0899c0.2696-0.015,0.3594-0.1497,0.3594-0.4193c0-0.6289,0.015-1.2579,0.015-1.9017
		c0-0.4791-0.015-0.9434,0-1.4225c0-0.2246-0.0749-0.3594-0.3295-0.3594c-0.0599,0-0.1648,0-0.1497-0.1048
		c0.015-0.1048,0.1048-0.0749,0.1797-0.0749c0.3145,0,0.614,0,0.9284,0c0.1497,0,0.2097,0.045,0.2696,0.1946
		c0.3444,0.9584,0.6888,1.9017,1.0332,2.8601C71.8599,36.028,71.8899,36.0879,71.9347,36.2078z"/>
	<path style="fill:#01C1D6;" d="M84.034,10.1226c0-0.524,0-1.0631,0-1.5873c0-0.1348-0.015-0.2096-0.1947-0.2096
		c-0.4642,0-0.4642,0-0.4642-0.4791c0-0.1797,0.0599-0.1946,0.2096-0.1946c0.4343,0,0.4343,0,0.4343-0.4343
		c0-0.2546,0-0.524,0-0.7786c0-0.1198,0.0299-0.1497,0.1497-0.1497c0.7038-0.0299,0.7038-0.045,0.7038,0.6739
		c0,0.1946,0,0.3744,0,0.569c0,0.1048,0.0299,0.1497,0.1347,0.1348c0.045,0,0.0898,0,0.1348,0c0.5391,0,0.5391,0,0.4941,0.554
		c0,0.1048-0.0299,0.1348-0.1348,0.1348c-0.1647,0-0.3145,0-0.4792,0c-0.1198,0-0.1647,0.0299-0.1647,0.1497
		c0,1.0033,0,2.0066,0,3.0099c0,0.2845,0.1498,0.4043,0.4792,0.3744c0.2845-0.0299,0.3145,0.0749,0.2995,0.3144
		c-0.015,0.3894,0,0.3894-0.4043,0.4043c-0.1199,0-0.2546,0.015-0.3744,0c-0.5391-0.0299-0.8236-0.3144-0.8386-0.8535
		C84.034,11.1857,84.049,10.6467,84.034,10.1226L84.034,10.1226z"/>
	<path style="fill:#01C1D6;" d="M31.5941,34.3659c0.3743-0.2096,0.7487-0.3894,1.183-0.3744
		c0.569,0.015,0.8236,0.2546,0.8236,0.8535c0.0149,0.6439,0.0149,1.3028,0,1.9466c0,0.2096,0.0449,0.3594,0.2845,0.3894
		c0.0599,0.015,0.1347,0.015,0.1199,0.1049c-0.015,0.0899-0.0899,0.0599-0.1498,0.0599c-0.3893,0-0.7936,0-1.1829,0
		c-0.045,0-0.1199,0.0299-0.1348-0.0599c-0.015-0.0899,0.06-0.1049,0.1199-0.1198c0.2545-0.0299,0.3145-0.1797,0.2994-0.4043
		c-0.015-0.599,0-1.183,0-1.7819c0-0.4642-0.1347-0.584-0.5989-0.569c-0.015,0-0.0299,0-0.045,0
		c-0.6888,0.0299-0.7337,0.0749-0.7337,0.7487c0,0.5391,0.015,1.0931,0,1.6322c0,0.2246,0.0599,0.3444,0.2845,0.3744
		c0.0749,0.015,0.1647,0.015,0.1347,0.1198c-0.015,0.0899-0.1048,0.0599-0.1498,0.0599c-0.3893,0-0.7786,0-1.168,0
		c-0.0599,0-0.1347,0.0299-0.1498-0.0599c-0.0149-0.0899,0.06-0.1049,0.1199-0.1049c0.2246-0.0299,0.2845-0.1647,0.2845-0.3744
		c-0.0149-1.168-0.0149-2.336,0-3.5189c0-0.2395-0.0449-0.3894-0.2845-0.4642c-0.0749-0.015-0.1797-0.045-0.1498-0.1497
		c0.0299-0.0899,0.1198-0.045,0.1797-0.0599c0.2395-0.0299,0.4941-0.045,0.7337-0.0899c0.1498-0.015,0.1946,0.015,0.1946,0.1797
		C31.5792,33.2578,31.5941,33.8119,31.5941,34.3659z"/>
	<path style="fill:#01C1D6;" d="M95.025,17.6696c0.1648-0.1797,0.3145-0.3444,0.4642-0.4941
		c0.2546-0.2546,0.569-0.3594,0.9284-0.3594c0.1497,0,0.2395,0.045,0.2096,0.2246c0,0.0299,0,0.045,0,0.0749
		c0,0.1797,0.06,0.3894-0.015,0.5391c-0.0897,0.1647-0.3294,0.045-0.4941,0.0749c-0.6289,0.1198-1.0332,0.6289-1.0332,1.3327
		c0,0.8535,0,1.707,0,2.5606c0,0.1647-0.0299,0.2546-0.2247,0.2246c-0.1947-0.015-0.4492,0.0599-0.569-0.045
		c-0.1348-0.1198-0.0449-0.3894-0.0449-0.584c0-1.3477,0-2.7104,0-4.058c0-0.1797,0.0449-0.2246,0.2246-0.2246
		c0.569,0.015,0.569,0,0.569,0.584C95.025,17.5498,95.025,17.5947,95.025,17.6696z"/>
	<path style="fill:#01C1D6;" d="M36.5656,36.9864c-0.4193,0.2546-0.8236,0.4642-1.2878,0.4343
		c-0.4343-0.0299-0.7338-0.3145-0.7487-0.7487c0-0.6289-0.015-1.2728,0-1.9017c0-0.2395-0.0449-0.4193-0.2995-0.4791
		c-0.0599-0.015-0.1347-0.0299-0.1198-0.1198c0.015-0.1048,0.1048-0.0599,0.1647-0.0749c0.2097-0.0299,0.4193-0.045,0.629-0.0749
		c0.1946-0.0299,0.2695,0.015,0.2695,0.2246c-0.015,0.7337,0,1.4675,0,2.2012c0,0.4343,0.1647,0.584,0.599,0.554
		c0.0449,0,0.0898,0,0.1347-0.015c0.5391-0.0599,0.6139-0.1348,0.6139-0.6739s-0.0149-1.0781,0-1.6172
		c0-0.2246-0.0449-0.3594-0.2695-0.4193c-0.0599-0.015-0.1497-0.045-0.1347-0.1348c0.0149-0.0899,0.1048-0.045,0.1647-0.0599
		c0.2246-0.0299,0.4343-0.045,0.6589-0.0899c0.1647-0.0299,0.2395,0.015,0.2395,0.2096c-0.015,0.8086,0,1.6172-0.015,2.4259
		c0,0.2395,0.0599,0.4193,0.2994,0.4941c0.06,0.015,0.1348,0.0299,0.1199,0.1198c-0.015,0.0749-0.1049,0.0599-0.1647,0.0749
		c-0.2097,0.0299-0.4193,0.045-0.629,0.0899c-0.1946,0.045-0.2845,0-0.2546-0.2246C36.5656,37.1212,36.5656,37.0762,36.5656,36.9864
		z"/>
	<path style="fill:#01C1D6;" d="M58.2633,36.9864c-0.4193,0.2395-0.7937,0.4492-1.2579,0.4343
		c-0.4641-0.0299-0.7637-0.2995-0.7786-0.7786c0-0.6439-0.015-1.3028,0-1.9466c0-0.2096-0.06-0.3444-0.2696-0.4044
		c-0.0599-0.015-0.1797-0.0299-0.1647-0.1348c0.015-0.0899,0.1198-0.0599,0.1797-0.0599c0.2097-0.0299,0.4193-0.045,0.629-0.0749
		c0.1797-0.0299,0.2545,0.015,0.2545,0.2096c-0.0149,0.6889,0.015,1.3926-0.0149,2.0815c-0.015,0.7038,0.2994,0.7337,0.7786,0.6739
		c0.0299,0,0.0599-0.015,0.0898-0.015c0.5091-0.1198,0.5091-0.1198,0.5091-0.6439s0-1.0482,0-1.5723
		c0-0.2246-0.0299-0.4193-0.2994-0.4791c-0.06-0.015-0.1348-0.0299-0.1199-0.1198c0.015-0.0899,0.0898-0.0599,0.1497-0.0599
		c0.2247-0.0299,0.4492-0.045,0.6739-0.0899c0.1648-0.0299,0.2246,0.0299,0.2246,0.1946c0,0.7936,0,1.6023,0,2.3959
		c0,0.2546,0.045,0.4492,0.3145,0.524c0.045,0.015,0.1199,0.0299,0.1049,0.1049c-0.015,0.0749-0.0749,0.0599-0.1348,0.0749
		c-0.2246,0.0299-0.4342,0.045-0.6588,0.0899c-0.2097,0.045-0.2995,0-0.2546-0.2395
		C58.2783,37.1212,58.2633,37.0762,58.2633,36.9864z"/>
	<path style="fill:#01C1D6;" d="M47.5567,37.4356c-0.3444,0-0.6739-0.0599-1.0033-0.1647
		c-0.0898-0.0299-0.1648-0.0599-0.1648-0.1797c0-0.2695-0.0299-0.5391-0.0449-0.8086c0-0.0749-0.0898-0.2096,0.0599-0.2395
		s0.1347,0.1198,0.1797,0.1946c0.1048,0.1946,0.1946,0.3894,0.2994,0.584c0.2247,0.4043,0.8386,0.4043,1.2279,0.2845
		c0.2995-0.0899,0.4792-0.3894,0.4642-0.7786c-0.015-0.2546-0.1347-0.4342-0.3294-0.584c-0.2696-0.2096-0.5841-0.3295-0.8836-0.4941
		c-0.1347-0.0749-0.2845-0.1497-0.4043-0.2395c-0.4642-0.3295-0.6289-0.7487-0.5091-1.2878
		c0.1049-0.4343,0.5241-0.8236,1.0033-0.8835c0.4193-0.0599,0.8386-0.045,1.2429,0.0749c0.0749,0.015,0.1497,0.015,0.1648,0.1348
		c0.015,0.2845,0.0299,0.569,0.0599,0.8535c0,0.045,0.015,0.1048-0.0449,0.1198c-0.0749,0.015-0.1198-0.015-0.1497-0.0899
		c-0.0749-0.2096-0.1947-0.4043-0.3145-0.584c-0.2247-0.3444-0.5691-0.2995-0.8985-0.2546
		c-0.2696,0.0299-0.4941,0.1797-0.5541,0.4791c-0.0599,0.3444,0.0299,0.6439,0.3295,0.8385
		c0.2695,0.1797,0.569,0.2845,0.8535,0.4492c0.1199,0.0599,0.2546,0.1348,0.3744,0.2096c0.554,0.3594,0.7338,0.7487,0.584,1.3177
		c-0.1497,0.569-0.6139,0.9584-1.1979,1.0033C47.7963,37.4207,47.6765,37.4207,47.5567,37.4356z"/>
	<path style="fill:#01C1D6;" d="M93.1983,37.4356c-0.3444,0-0.6889-0.0599-1.0183-0.1647
		c-0.0898-0.0299-0.1497-0.0749-0.1497-0.1946c0-0.2845-0.0299-0.584-0.0449-0.8685c0-0.0599-0.045-0.1348,0.0599-0.1497
		c0.0898-0.015,0.1198,0.015,0.1497,0.1048c0.0898,0.2395,0.1947,0.4791,0.3444,0.7038c0.2696,0.3894,0.6739,0.3594,1.0631,0.3145
		c0.3444-0.045,0.5391-0.2695,0.599-0.599c0.0449-0.2845-0.0299-0.524-0.2546-0.7188c-0.2246-0.2096-0.5091-0.3145-0.7786-0.4492
		c-0.1947-0.1048-0.3894-0.1946-0.5841-0.3145c-0.4792-0.3145-0.6439-0.7487-0.524-1.2878c0.1048-0.4642,0.524-0.8385,1.0482-0.8985
		c0.3893-0.045,0.7936-0.0299,1.1829,0.0599c0.1498,0.0299,0.2097,0.1049,0.2097,0.2546c0,0.2395,0.0299,0.4791,0.0449,0.7038
		c0,0.045,0.0449,0.1348-0.0599,0.1497c-0.0898,0.015-0.1198-0.045-0.1497-0.1198c-0.0749-0.1946-0.1797-0.3894-0.2995-0.554
		c-0.2246-0.3295-0.569-0.2995-0.8985-0.2546c-0.2696,0.045-0.4792,0.1797-0.5391,0.4941
		c-0.0599,0.3594,0.0449,0.6289,0.3444,0.8385c0.2695,0.1797,0.569,0.2845,0.8535,0.4492c0.1199,0.0599,0.2396,0.1348,0.3444,0.1946
		c0.584,0.3744,0.7338,0.7337,0.599,1.3327c-0.1198,0.5391-0.584,0.9284-1.153,1.0033
		C93.4528,37.4207,93.318,37.4207,93.1983,37.4356z"/>
	<path style="fill:#01C1D6;" d="M27.4912,35.0997c0,0.4193,0.0299,0.8236,0.1498,1.2129c0.2695,0.8985,1.0632,0.9584,1.692,0.7786
		c0.1498-0.045,0.2396-0.1647,0.3295-0.2995c0.1498-0.2246,0.2546-0.4642,0.3445-0.7188c0.03-0.0749,0.0599-0.1198,0.1347-0.0899
		c0.0749,0.015,0.0599,0.0899,0.0449,0.1348c-0.015,0.2695-0.03,0.554-0.0449,0.8236c0,0.1049,0,0.1946-0.1347,0.2395
		c-0.6738,0.2546-1.3627,0.3295-2.0665,0.1049c-0.539-0.1647-0.8685-0.554-1.0482-1.0781c-0.2396-0.6889-0.2396-1.4076,0-2.0964
		c0.2695-0.7786,0.8535-1.168,1.6472-1.2579c0.4792-0.0599,0.9435-0.015,1.4076,0.0899c0.1199,0.0299,0.1498,0.0749,0.1647,0.1797
		c0.015,0.3295,0.03,0.6589,0.0449,0.9883c0,0.0599,0.06,0.1348-0.0599,0.1497c-0.0749,0.015-0.1048-0.045-0.1347-0.1048
		c-0.0749-0.2246-0.1946-0.4492-0.2995-0.6589c-0.1347-0.2695-0.3594-0.3894-0.6439-0.4043
		c-0.8386-0.0599-1.3477,0.3444-1.4824,1.183C27.5061,34.5456,27.4912,34.8301,27.4912,35.0997z"/>
	<path style="fill:#01C1D6;" d="M79.392,35.4141c0.1648-0.3145,0.3145-0.584,0.4642-0.8535
		c0.0898-0.1647,0.0599-0.2845-0.1497-0.3295c-0.0599-0.015-0.1348,0-0.1199-0.1048c0.015-0.0899,0.0898-0.045,0.1348-0.045
		c0.2994,0,0.5989,0,0.8985,0c0.0449,0,0.1198-0.0299,0.1347,0.0599c0,0.0749-0.0599,0.0899-0.1048,0.0899
		c-0.2696,0.045-0.4343,0.2395-0.5541,0.4642c-0.1497,0.2546-0.2994,0.4941-0.4642,0.7337c-0.0599,0.0899-0.0599,0.1497,0,0.2395
		c0.2696,0.3894,0.5391,0.7786,0.8086,1.168c0.1049,0.1497,0.2097,0.2995,0.4043,0.3444c0.0449,0.015,0.0749,0.045,0.0749,0.1049
		c-0.015,0.0749-0.0749,0.0599-0.1048,0.0599c-0.4043,0-0.8236,0-1.2279,0c-0.0449,0-0.1198,0.015-0.1198-0.0599
		c0-0.0749,0.0599-0.0899,0.1048-0.0899c0.2395-0.0299,0.2247-0.1647,0.1348-0.3145c-0.1797-0.2995-0.3744-0.584-0.5841-0.8985
		c-0.1946,0.3145-0.3593,0.614-0.5391,0.8985c-0.0898,0.1497-0.0749,0.2695,0.1347,0.3145c0.06,0.015,0.1348,0.015,0.1348,0.1048
		c0,0.1049-0.0898,0.0599-0.1497,0.0749c-0.2995,0-0.5841,0-0.8835,0c-0.0599,0-0.1199,0.015-0.1199-0.0749
		c0-0.0749,0.045-0.0899,0.1048-0.1048c0.2546-0.045,0.4043-0.2246,0.5391-0.4193c0.1797-0.2695,0.3444-0.524,0.5391-0.7786
		c0.0898-0.1198,0.0749-0.1946,0-0.3145c-0.2546-0.3594-0.4941-0.7337-0.7487-1.0931c-0.1048-0.1497-0.1946-0.2995-0.4043-0.3444
		c-0.0599-0.015-0.0749-0.045-0.0749-0.1048c0.015-0.0599,0.0599-0.045,0.0898-0.045c0.4343,0,0.8535,0,1.2878,0
		c0.0299,0,0.0898,0,0.0898,0.045c0,0.0599-0.0299,0.0749-0.0749,0.0899c-0.2546,0.045-0.2395,0.1946-0.1347,0.3594
		C79.0326,34.86,79.1973,35.1146,79.392,35.4141z"/>
	<path style="fill:#01C1D6;" d="M65.5258,36.7768c0-0.0899-0.015-0.1946,0-0.2845c0-0.0599-0.06-0.1497,0.0599-0.1647
		c0.0898-0.015,0.1048,0.0749,0.1347,0.1348c0.1049,0.1797,0.2097,0.3744,0.3295,0.5391c0.1347,0.1946,0.5241,0.2546,0.8086,0.1348
		c0.2546-0.1048,0.3594-0.2995,0.3295-0.584c-0.0299-0.2395-0.2097-0.3594-0.4043-0.4642
		c-0.2995-0.1647-0.6289-0.2546-0.8985-0.4642c-0.5091-0.3894-0.4642-1.0931,0.0599-1.4375
		c0.1347-0.0899,0.2995-0.1647,0.4642-0.1797c0.3444-0.045,0.6739-0.045,1.0033,0.0599c0.06,0.015,0.1348,0.015,0.1348,0.1048
		c0.015,0.2246,0.015,0.4642,0.015,0.6889c0,0.045-0.015,0.0749-0.06,0.0749c-0.0599,0-0.0749-0.0299-0.1048-0.0749
		c-0.0898-0.1348-0.1647-0.2845-0.2546-0.4193c-0.1797-0.2546-0.6738-0.3145-0.9134-0.1198
		c-0.2096,0.1647-0.2395,0.4642-0.0449,0.6889c0.1497,0.1797,0.3594,0.2546,0.554,0.3444c0.1648,0.0749,0.3145,0.1348,0.4792,0.2096
		c0.3444,0.1797,0.599,0.4492,0.5541,0.8835c-0.045,0.4343-0.2845,0.7038-0.6739,0.8685c-0.3295,0.1348-0.6889,0.1049-1.0332,0.0749
		c-0.015,0-0.015,0-0.0299,0C65.5258,37.3008,65.5258,37.3008,65.5258,36.7768z"/>
	<path style="fill:#01C1D6;" d="M85.5015,36.7618c0.0299,0.1049,0.0299,0.1946-0.0749,0.2695
		c-0.4492,0.3295-0.9434,0.4642-1.4675,0.3594c-0.6739-0.1348-1.0033-0.599-1.1231-1.2429
		c-0.1497-0.7786,0.1199-1.5274,0.7337-1.8868c0.4643-0.2845,0.9884-0.3295,1.5125-0.2096
		c0.2696,0.0599,0.4193,0.2395,0.4193,0.4791c0,0.1946-0.1199,0.3444-0.3295,0.3594c-0.1947,0.0299-0.3295-0.0599-0.3893-0.2546
		c-0.0449-0.1497,0-0.3444-0.1946-0.3894c-0.2247-0.045-0.4343-0.015-0.629,0.1198c-0.2545,0.1797-0.3593,0.4342-0.4043,0.7188
		c-0.0749,0.3894-0.0449,0.7786,0.045,1.168c0.1347,0.569,0.554,0.8535,1.138,0.7637
		C84.9924,36.9864,85.2469,36.8965,85.5015,36.7618z"/>
	<path style="fill:#01C1D6;" d="M60.5394,34.3959c0.2994-0.2246,0.584-0.4193,0.9433-0.4043
		c0.2097,0.015,0.3444,0.0899,0.3893,0.2995c0.0299,0.1946-0.0299,0.3594-0.2395,0.4343c-0.2097,0.0599-0.3744,0-0.4492-0.1946
		c-0.0599-0.1497-0.1497-0.1348-0.2696-0.1048c-0.2845,0.0899-0.3743,0.2096-0.3743,0.5091c0,0.614,0.0149,1.2129,0,1.8269
		c0,0.2546,0.0599,0.4193,0.3443,0.4193c0.0749,0,0.1648,0.015,0.1498,0.1049c-0.015,0.0899-0.1049,0.0599-0.1498,0.0599
		c-0.4043,0-0.8236,0-1.2278,0c-0.06,0-0.1348,0.0299-0.1498-0.0749c0-0.0899,0.0749-0.0899,0.1348-0.1049
		c0.2246-0.0299,0.2845-0.1647,0.2845-0.3744c0-0.6889,0-1.3926,0-2.0814c0-0.1946-0.0749-0.3145-0.2546-0.3744
		c-0.0749-0.0299-0.1797-0.045-0.1647-0.1348c0.015-0.1048,0.1348-0.0749,0.2097-0.0899c0.2246-0.045,0.4343-0.0599,0.6589-0.0899
		c0.1347-0.0299,0.1946,0.015,0.1797,0.1647C60.5394,34.2311,60.5394,34.291,60.5394,34.3959z"/>
	<path style="fill:#01C1D6;" d="M82.1473,35.5189c0,0.4193,0.015,0.8385,0,1.2579c0,0.2246,0.0299,0.3894,0.2994,0.4043
		c0.0599,0,0.1347,0.015,0.1347,0.1049c-0.015,0.1048-0.0898,0.0599-0.1497,0.0599c-0.3893,0-0.7937,0-1.1829,0
		c-0.045,0-0.1199,0.015-0.1348-0.0599c-0.015-0.0899,0.0449-0.1049,0.1049-0.1198c0.2395-0.0299,0.2994-0.1797,0.2845-0.3894
		c-0.015-0.6739-0.015-1.3477,0-2.0215c0-0.2246-0.0449-0.3744-0.2696-0.4492c-0.0599-0.015-0.1497-0.045-0.1198-0.1348
		c0.015-0.0749,0.1048-0.0599,0.1647-0.0749c0.2546-0.045,0.4941-0.0599,0.7487-0.1048c0.1347-0.015,0.1497,0.045,0.1497,0.1647
		c0,0.4492,0,0.8985,0,1.3477C82.1473,35.5189,82.1473,35.5189,82.1473,35.5189z"/>
	<path style="fill:#01C1D6;" d="M89.7841,37.3158c-0.0299,0-0.0599,0-0.0898,0c-0.1797,0.015-0.3145-0.045-0.3893-0.2096
		c-0.0599-0.1497-0.0449-0.2845,0.0599-0.3894c0.1347-0.1348,0.2995-0.1797,0.4792-0.1049
		c0.2097,0.0899,0.3145,0.2546,0.3145,0.4791c0.015,0.4642-0.3744,0.9284-0.8386,0.9734c-0.0449,0-0.0898,0.015-0.1199-0.045
		c-0.015-0.0599,0.0299-0.0749,0.075-0.1048C89.5296,37.78,89.7392,37.6303,89.7841,37.3158z"/>
	<path style="fill:#01C1D6;" d="M77.1159,32.9733c0.0149,0.1497-0.06,0.2546-0.1947,0.2995
		c-0.3893,0.1348-0.7937,0.2546-1.183,0.3744c-0.0449,0.015-0.0898,0.015-0.1198-0.0299c-0.015-0.045,0.015-0.0749,0.0449-0.0899
		c0.3444-0.2546,0.6739-0.524,1.0182-0.7637C76.8912,32.6139,77.1009,32.7337,77.1159,32.9733z"/>
	<path style="fill:#01C1D6;" d="M101.5689,36.9714c0,0.2395-0.1497,0.3894-0.4043,0.3894c-0.2395,0-0.4043-0.1647-0.4043-0.3894
		c0-0.2096,0.1946-0.4044,0.4043-0.4044C101.4041,36.5671,101.5689,36.7468,101.5689,36.9714z"/>
	<path style="fill:#01C1D6;" d="M95.6091,37.3607c-0.2546,0-0.4043-0.1348-0.4193-0.3744c0-0.2246,0.1648-0.4044,0.3893-0.4193
		c0.2247-0.015,0.4043,0.1647,0.4193,0.3894C95.9984,37.196,95.8337,37.3607,95.6091,37.3607z"/>
	<path style="fill:#01C1D6;" d="M81.8028,32.7487c0.2246,0,0.3893,0.1647,0.3893,0.3894c0,0.2096-0.1796,0.3894-0.3893,0.3894
		c-0.2097,0-0.4043-0.1797-0.3893-0.3894C81.3985,32.9284,81.5782,32.7487,81.8028,32.7487z"/>
	<path style="fill:#01C1D6;" d="M45.6998,16.5016c-0.0749-0.7487-0.3444-1.4076-0.8985-1.9317
		c-0.3743-0.3444-0.8236-0.554-1.3177-0.7188c0.9883-0.614,1.6173-1.4375,1.737-2.5756c0.1347-1.2279-0.3144-2.336-1.4225-2.9649
		c-1.0332-0.584-2.1712-0.7637-3.3243-0.7786c-2.336-0.0299-4.672-0.015-7.0079-0.015c-0.1797,0-0.1946,0.0599-0.1946,0.2096
		c0,4.3724,0,8.745,0,13.1174c0,0.1797,0.0449,0.2395,0.2395,0.2395c2.3509-0.015,4.7169,0.0299,7.0678-0.0299
		c0.8086-0.015,1.6173-0.1048,2.3959-0.3444c0.9583-0.2995,1.7969-0.7786,2.306-1.6921
		C45.7148,18.2236,45.7897,17.3701,45.6998,16.5016z M37.7485,11.7847c0-0.3144,0-0.6289,0-0.9434c0-0.1048,0-0.1647,0.1348-0.1647
		c0.7187,0.0299,1.4525-0.045,2.1712,0.045c0.045,0,0.0749,0,0.1199,0.015c0.6289,0.1348,0.8835,0.4492,0.8685,1.0482
		c-0.015,0.584-0.3444,0.9883-0.9434,1.0781c-0.7487,0.1198-1.4974,0.0299-2.2462,0.045c-0.1348,0-0.1049-0.0899-0.1049-0.1647
		C37.7336,12.4286,37.7485,12.0992,37.7485,11.7847z M41.507,16.9358c-0.0599,0.3744-0.2994,0.614-0.6439,0.7637
		c-0.3444,0.1497-0.7038,0.1797-1.0631,0.1647c-0.2546,0-0.5091,0-0.7637,0c-0.3744,0-0.7637,0-1.1381,0
		c-0.1347,0-0.1797-0.0299-0.1647-0.1647c0-0.7038,0-1.4076,0-2.1114c0-0.0899-0.015-0.1797,0.1199-0.1647
		c0.8985,0.0299,1.7969-0.0599,2.6953,0.1048C41.2974,15.6481,41.6419,16.0972,41.507,16.9358z"/>
	<path style="fill:#01C1D6;" d="M32.5824,20.8891c-0.1797-0.4941-0.3444-0.9734-0.5241-1.4675
		c-1.3926-3.8934-2.7853-7.7866-4.1778-11.6799c-0.0599-0.1797-0.1498-0.2546-0.3445-0.2395c-0.6738,0.015-1.3476,0-2.0215,0
		c-0.6889,0-1.3776,0-2.0665,0c-0.1647,0-0.2246,0.045-0.2845,0.1946c-0.6289,1.7819-1.2728,3.5489-1.9166,5.3308
		c-0.9284,2.6055-1.8718,5.211-2.8152,7.8165c-0.0599,0.1797-0.045,0.2395,0.1647,0.2395c1.3177-0.015,2.6355-0.015,3.9682,0
		c0.1647,0,0.2395-0.0599,0.2695-0.2096c0.1199-0.4642,0.2546-0.9284,0.3743-1.3926c0.03-0.1497,0.0899-0.1946,0.2396-0.1946
		c1.3477,0,2.6954,0,4.0281,0c0.1347,0,0.1946,0.0299,0.2246,0.1647c0.1347,0.4941,0.2695,0.9734,0.4044,1.4525
		c0.0299,0.1198,0.0899,0.1647,0.2096,0.1647c1.3776,0,2.7552,0,4.1329,0C32.6423,21.0687,32.6273,21.0089,32.5824,20.8891z
		 M26.6676,16.4567c-0.7936,0-1.6022,0-2.3959,0c-0.0899,0-0.1797,0.015-0.1347-0.1348c0.4343-1.4974,0.8535-3.0099,1.2878-4.5073
		c0-0.015,0.015-0.045,0.045-0.0899c0.4492,1.5274,0.8835,3.0398,1.3327,4.5522C26.8473,16.4267,26.8323,16.4717,26.6676,16.4567z"
		/>
	<path style="fill:#01C1D6;" d="M59.596,20.8741c-0.2247-0.614-0.4492-1.2429-0.6739-1.8718
		c-1.3477-3.7735-2.7104-7.547-4.058-11.3205c-0.0599-0.1497-0.1198-0.1797-0.2695-0.1797c-1.3777,0-2.7703,0-4.1479,0
		c-0.1498,0-0.2097,0.0599-0.2546,0.1946c-1.4225,3.9532-2.8301,7.9064-4.2527,11.8447c-0.1797,0.4941-0.3594,1.0033-0.5392,1.5124
		c0.045,0.015,0.045,0.015,0.06,0.015c1.3926,0,2.7852,0,4.1778,0c0.1648,0,0.1797-0.0899,0.2096-0.1946
		c0.1348-0.4642,0.2696-0.9434,0.3893-1.4076c0.0299-0.1348,0.0749-0.1797,0.2247-0.1797c1.3477,0,2.7103,0,4.058,0
		c0.1497,0,0.1797,0.0599,0.2247,0.1797c0.1347,0.4791,0.2695,0.9584,0.4043,1.4225c0.0299,0.1198,0.0749,0.1797,0.2246,0.1797
		c1.3627,0,2.7403-0.015,4.103,0C59.6709,21.0687,59.6409,21.0089,59.596,20.8741z M53.6812,16.4567c-0.7937,0-1.5873,0-2.366,0
		c-0.0898,0-0.1946,0.045-0.1347-0.1348c0.4343-1.4974,0.8535-2.9949,1.2728-4.4923c0.015-0.0299,0.015-0.0599,0.0449-0.1198
		c0.4492,1.5573,0.8835,3.0548,1.3327,4.5671C53.8758,16.4267,53.8459,16.4717,53.6812,16.4567z"/>
	<path style="fill:#01C1D6;" d="M87.8225,18.7927c0-0.5391,0-1.0931,0-1.6322c0-0.0899,0.0299-0.1797-0.1199-0.1797
		c-0.2096,0-0.4491-0.0599-0.6289,0.0299c-0.1347,0.0599-0.015,0.3145-0.0599,0.5091c-0.1947-0.2246-0.4043-0.4193-0.6589-0.524
		c-1.0182-0.4492-2.1713,0.0749-2.6055,1.168c-0.2546,0.6439-0.2546,1.3327-0.1498,2.0066
		c0.0749,0.5241,0.2845,0.9734,0.7338,1.3028c0.7787,0.584,1.9616,0.5241,2.5456-0.1348c0.045-0.045,0.045-0.1198,0.1049-0.1198
		c0,0.2246,0.015,0.4492,0,0.6589c-0.0299,0.6589-0.2995,1.0482-0.7937,1.2129c-0.2845,0.0899-0.569,0.0899-0.8684,0.045
		c-0.2696-0.045-0.5691-0.1348-0.644-0.4193c-0.1048-0.3295-0.2994-0.3594-0.569-0.3295c-0.0749,0.015-0.1497,0.015-0.2096,0
		c-0.1648-0.0299-0.2097,0.045-0.1797,0.1946c0.0749,0.4043,0.2546,0.7337,0.6139,0.9434c0.4792,0.2995,1.0033,0.3744,1.5424,0.3295
		c1.1829-0.0899,1.8567-0.7786,1.9167-1.9616C87.8524,20.8741,87.8225,19.8409,87.8225,18.7927z M86.8042,20.4548
		c-0.2546,0.554-0.7787,0.8086-1.3926,0.7038c-0.4643-0.0749-0.8386-0.4792-0.9434-1.0332
		c-0.0449-0.2246-0.0599-0.4492-0.0599-0.584c0-0.4791,0.0299-0.8685,0.1946-1.2279c0.2097-0.4642,0.5392-0.7038,1.0631-0.7337
		c0.5541-0.015,0.9583,0.2096,1.168,0.7038C87.1486,19.0172,87.1336,19.7511,86.8042,20.4548z"/>
	<path style="fill:#01C1D6;" d="M77.9994,12.4586c-0.7937-2.1713-1.5723-4.3425-2.351-6.5138
		c-0.0298-0.1048-0.1048-0.1198-0.1946-0.1198c-0.2395,0-0.4792,0.015-0.7188,0c-0.1497-0.015-0.2096,0.0599-0.2545,0.1797
		c-0.1498,0.4343-0.3145,0.8535-0.4792,1.2878c-0.629,1.6771-1.2579,3.3543-1.9017,5.0314
		c-0.0599,0.1647-0.0599,0.2246,0.1347,0.2096c0.1947-0.015,0.3744-0.015,0.569,0c0.1348,0.015,0.1947-0.045,0.2396-0.1647
		c0.1946-0.554,0.4043-1.0931,0.584-1.6472c0.0449-0.1348,0.1048-0.1946,0.2695-0.1946c0.7338,0.015,1.4676,0.015,2.2012,0
		c0.1648,0,0.2246,0.0599,0.2845,0.2096c0.1796,0.5391,0.3593,1.0781,0.554,1.6023c0.0299,0.0899,0.0449,0.1946,0.1946,0.1946
		c0.2846-0.015,0.5691,0,0.8536,0C77.9994,12.4735,77.9994,12.4735,77.9994,12.4586z M75.903,9.7632c-0.6289,0-1.2579,0-1.9167,0
		c0.3444-0.9584,0.6889-1.9017,1.0482-2.905c0.3444,0.9734,0.6589,1.8718,0.9734,2.7852
		C76.0377,9.7482,75.9928,9.7632,75.903,9.7632z"/>
	<path style="fill:#01C1D6;" d="M79.5567,19.6462c1.0332,0.015,2.0514,0,3.0847,0.015c0.1797,0,0.2246-0.045,0.2096-0.2246
		c-0.015-0.2395-0.015-0.4791-0.0449-0.7038c-0.1049-0.8535-0.5091-1.4824-1.3477-1.7669s-1.6172-0.1647-2.276,0.4642
		c-0.644,0.614-0.7787,1.4076-0.7487,2.2611c0.0449,1.3327,0.9434,2.4108,2.4408,2.306c0.9434-0.0749,1.752-0.7637,1.9017-1.707
		c-0.1797,0-0.3444,0.015-0.5091,0c-0.2246-0.0299-0.3295,0.045-0.4193,0.2546c-0.2096,0.4941-0.6289,0.7188-1.138,0.7337
		c-0.4492,0.015-0.8386-0.1198-1.0932-0.5241c-0.1647-0.2695-0.2395-0.554-0.2845-0.8685
		C79.3171,19.6762,79.377,19.6462,79.5567,19.6462z M79.3471,18.8226c0.0749-0.9734,1.123-1.5723,1.9766-1.123
		c0.3593,0.1797,0.7037,0.8236,0.6588,1.183c-0.015,0.1198-0.1048,0.0749-0.1647,0.0749c-0.3894,0-0.7787,0-1.153,0
		c-0.3894,0-0.7787,0-1.1531,0C79.392,18.9873,79.3321,18.9574,79.3471,18.8226z"/>
	<path style="fill:#01C1D6;" d="M101.464,18.8076c-0.1198-1.2129-1.0033-2.0215-2.2162-2.0066c-0.9733,0-1.707,0.4941-2.0514,1.3926
		c-0.2395,0.6289-0.2845,1.2878-0.1647,1.9616c0.1048,0.584,0.3594,1.0931,0.8386,1.4525c0.4641,0.3444,0.9883,0.4193,1.5573,0.3744
		c0.7187-0.045,1.2878-0.3444,1.6471-0.9883C101.464,20.3051,101.5539,19.5713,101.464,18.8076z M100.3559,20.5746
		c-0.1947,0.4642-0.569,0.6739-1.0332,0.6889c-0.4793,0.015-0.8836-0.1048-1.168-0.5391c-0.4642-0.7188-0.4043-2.0814,0.1048-2.7703
		c0.4492-0.614,1.782-0.6289,2.1713,0.2695c0.1497,0.3444,0.2097,0.6889,0.1947,1.0631
		C100.6405,19.736,100.5357,20.1703,100.3559,20.5746z"/>
	<path style="fill:#01C1D6;" d="M90.5927,9.314c-0.1497-0.8985-0.6739-1.5124-1.5573-1.752c-0.8835-0.2246-1.782-0.015-2.351,0.7188
		c-0.4342,0.554-0.554,1.1979-0.554,1.8868c0,0.1198-0.015,0.2546,0,0.3744c0.0898,1.0482,0.7188,2.0964,2.0665,2.1263
		c1.0332,0.0299,1.7969-0.3144,2.2162-1.4076C90.6676,10.6467,90.6975,9.9878,90.5927,9.314z M89.4995,11.2756
		c-0.1946,0.4343-0.5391,0.6589-0.9883,0.6889c-0.4792,0.0299-0.9133-0.0749-1.1979-0.5091
		c-0.2546-0.4043-0.3295-0.8385-0.3295-1.3028c0-0.3744,0.0599-0.7337,0.2096-1.0781c0.2546-0.599,0.6889-0.8685,1.3177-0.8236
		c0.614,0.045,1.0333,0.3894,1.183,1.0183C89.844,9.9429,89.7841,10.6167,89.4995,11.2756z"/>
	<path style="fill:#01C1D6;" d="M55.2085,34.321c0.0749,0.1647,0.2246,0.1647,0.3594,0.1348
		c0.1347-0.0299,0.1647-0.1497,0.1647-0.2845c0-0.1647-0.0898-0.2395-0.2247-0.2845c-0.0749-0.0299-0.1497-0.0299-0.2395-0.015
		c-0.2396,0.015-0.4193,0.2546-0.6139,0.2395c-0.2247-0.015-0.4492-0.1348-0.6889-0.1198c-0.0299,0-0.0599,0-0.0898,0
		c-0.569,0.0299-1.0182,0.4044-1.0931,0.9284c-0.0749,0.4492,0.1198,0.7936,0.5091,1.0332c-0.599,0.5091-0.629,0.8835-0.1049,1.1979
		c-0.0599,0.0749-0.1497,0.0749-0.2246,0.1198c-0.2395,0.1348-0.4492,0.2995-0.4343,0.614c0.015,0.3145,0.2246,0.4791,0.4792,0.599
		c0.1797,0.0899,0.3594,0.1198,0.554,0.1348c0.614,0.0599,1.198,0.015,1.6921-0.4044c0.3295-0.2845,0.4642-0.7786,0.2994-1.168
		c-0.1647-0.4044-0.5091-0.4492-0.8834-0.4492c-0.3295,0-0.6439,0-0.9733,0c-0.06,0-0.1199,0-0.1648,0
		c-0.1497-0.0299-0.2994-0.0899-0.2545-0.2995c0.0299-0.1797,0.1647-0.2546,0.3593-0.2096c0.2995,0.0749,0.614,0.0599,0.9134-0.045
		c0.7038-0.2246,1.0483-1.183,0.3145-1.8269C55.0138,34.1413,55.1337,34.1562,55.2085,34.321z M53.7111,37.211
		c0.2995,0,0.599,0,0.8985,0c0.2246,0,0.4343,0.045,0.5241,0.2845c0.0898,0.2546-0.015,0.524-0.2546,0.6889
		c-0.2695,0.1797-0.569,0.2246-0.8835,0.2395c-0.1797,0-0.3444-0.015-0.5091-0.0899c-0.2845-0.1198-0.4193-0.3894-0.3444-0.7188
		C53.187,37.3607,53.3966,37.211,53.7111,37.211z M54.5647,35.5339c-0.0599,0.2546-0.2247,0.3894-0.4792,0.4043
		c-0.2696,0.015-0.4792-0.0899-0.5541-0.3444c-0.1198-0.3444-0.1198-0.7038-0.0149-1.0482c0.0749-0.2395,0.2845-0.3894,0.524-0.3744
		c0.2396,0.015,0.4193,0.1198,0.4941,0.3594c0.06,0.1797,0.0898,0.3594,0.0898,0.584
		C54.6245,35.2494,54.5946,35.3991,54.5647,35.5339z"/>
	<path style="fill:#01C1D6;" d="M21.8009,37.1212c-0.2545-0.0749-0.2995-0.2395-0.2995-0.4941c0.015-1.3028,0-2.6055,0.015-3.9083
		c0-0.1647-0.0299-0.2096-0.1946-0.1946c-0.2395,0.0299-0.4791,0.0599-0.7337,0.0899c-0.0599,0.015-0.1498-0.045-0.1647,0.0599
		c-0.015,0.1049,0.0749,0.1049,0.1347,0.1348c0.2395,0.0749,0.3295,0.2395,0.2995,0.4941c-0.015,0.1797-0.015,0.3594,0,0.5391
		c0.015,0.1797-0.03,0.2096-0.2096,0.1647c-0.8386-0.1647-1.6321,0.2246-1.9467,0.9434c-0.2246,0.4941-0.2246,0.9883-0.0899,1.4974
		c0.1797,0.6589,0.584,0.9434,1.2579,0.9434c0.3594,0,0.6738-0.1497,0.9883-0.3444c0.015,0.3744,0.015,0.3594,0.3743,0.3145
		c0.1797-0.0299,0.3594-0.045,0.5391-0.0599c0.0599,0,0.1198-0.015,0.1347-0.0599C21.9508,37.1661,21.8609,37.1362,21.8009,37.1212z
		 M20.8575,35.6388c0,0.3444,0,0.6889,0,1.0482c0,0.1049-0.03,0.1647-0.1347,0.2096c-0.7637,0.3894-1.4376,0.015-1.4974-0.8385
		c-0.03-0.4193-0.045-0.8385,0.1048-1.2429c0.2096-0.584,0.9134-0.8086,1.3926-0.4642c0.0899,0.0599,0.1347,0.1348,0.1347,0.2546
		C20.8575,34.9649,20.8575,35.3093,20.8575,35.6388z"/>
	<path style="fill:#01C1D6;" d="M40.983,35.0098c-0.1497-0.7487-0.6738-1.1081-1.4375-1.0033
		c-0.2994,0.045-0.569,0.1797-0.8535,0.3594c0.015-0.569-0.0299-1.1081,0.0299-1.6472c0.015-0.1497-0.0299-0.1946-0.1797-0.1797
		c-0.2545,0.0299-0.5091,0.0599-0.7487,0.0899c-0.06,0.015-0.1648-0.045-0.1797,0.0599c-0.015,0.0899,0.0749,0.1198,0.1347,0.1348
		c0.2696,0.0749,0.3295,0.2695,0.3145,0.524c-0.015,1.2129,0,2.4408-0.015,3.6537c0,0.1497,0.045,0.2246,0.1797,0.2845
		c0.4492,0.1647,0.9134,0.1797,1.3776,0.1198c0.554-0.0749,0.9733-0.3744,1.2279-0.8985
		C41.0728,36.013,41.0878,35.5189,40.983,35.0098z M40.2642,36.5222c-0.1648,0.599-0.8535,0.8685-1.3776,0.569
		c-0.1348-0.0749-0.1947-0.1497-0.1947-0.3145c0.015-0.3444,0-0.6739,0-1.0183s0-0.6889,0-1.0482
		c0-0.1048,0.0299-0.1497,0.1199-0.1946c0.6738-0.3145,1.4075-0.0899,1.5124,0.7637C40.384,35.6986,40.384,36.1029,40.2642,36.5222z
		"/>
	<path style="fill:#01C1D6;" d="M44.5169,34.86c-0.1947-0.6739-0.7637-0.9883-1.4526-0.8535
		c-0.2845,0.0599-0.524,0.1797-0.7636,0.3295c0-0.5241-0.015-1.0482,0-1.5573c0-0.1946-0.0299-0.2845-0.2396-0.2395
		c-0.2395,0.045-0.4642,0.0599-0.7037,0.0899c-0.0599,0.015-0.1647-0.045-0.1797,0.0599c-0.015,0.0899,0.0749,0.1198,0.1348,0.1348
		c0.2695,0.0749,0.3144,0.2695,0.3144,0.524c-0.015,1.2129,0,2.4408-0.015,3.6537c0,0.1647,0.0599,0.2395,0.1947,0.2845
		c0.4342,0.1647,0.8835,0.1797,1.3327,0.1198c0.6289-0.0749,1.0781-0.4193,1.3028-1.0183
		C44.6517,35.8783,44.6667,35.3692,44.5169,34.86z M43.8131,36.5671c-0.1797,0.554-0.8684,0.8086-1.3776,0.5091
		c-0.1198-0.0599-0.1647-0.1348-0.1647-0.2845c0.015-0.3444,0-0.6889,0-1.0482c0-0.3444,0-0.6739,0-1.0183
		c0-0.1198,0.0299-0.1797,0.1347-0.2246c0.7487-0.3444,1.3627-0.015,1.4974,0.8236C43.9779,35.7435,43.9479,36.1628,43.8131,36.5671
		z"/>
	<path style="fill:#01C1D6;" d="M100.3858,37.196c-0.3443-0.045-0.4043-0.3295-0.4941-0.584
		c-0.4192-1.153-0.8535-2.321-1.2578-3.474c-0.045-0.1348-0.0898-0.2246-0.2696-0.2246c-0.1947,0-0.2097,0.1049-0.2546,0.2395
		c-0.4343,1.2129-0.8535,2.4259-1.2877,3.6388c-0.0749,0.1946-0.1498,0.3744-0.3893,0.3894c-0.0599,0-0.1198,0.0299-0.1198,0.0899
		c0,0.0899,0.0749,0.0749,0.1347,0.0749c0.3145,0,0.6289,0,0.9434,0c0.06,0,0.1647,0.045,0.1647-0.0749
		c0-0.1049-0.0898-0.0899-0.1497-0.1049c-0.2246-0.0299-0.3144-0.1647-0.2696-0.3744c0.06-0.3295,0.1947-0.6289,0.2845-0.9434
		c0.0299-0.0899,0.1048-0.0599,0.1647-0.0599c0.3744,0,0.7487,0,1.1081,0c0.1049,0,0.1498,0.045,0.1797,0.1348
		c0.0898,0.2695,0.1797,0.5391,0.2696,0.8086c0.0898,0.3145,0.0749,0.3444-0.2396,0.4492c-0.0599,0.015-0.1048,0.0299-0.1048,0.1049
		c0,0.0899,0.0599,0.0749,0.1198,0.0749c0.2247,0,0.4642,0,0.6889,0c0.2395,0,0.4792,0,0.7038,0c0.0599,0,0.1198,0,0.1198-0.0749
		C100.4607,37.241,100.4308,37.196,100.3858,37.196z M98.544,35.5639c-0.3295,0-0.6589,0-1.0182,0
		c0.1947-0.584,0.3893-1.153,0.599-1.7969c0.2246,0.6289,0.4192,1.1979,0.6289,1.7969
		C98.6788,35.5639,98.6039,35.5639,98.544,35.5639z"/>
	<path style="fill:#01C1D6;" d="M63.1299,34.0514c-0.7037,0.1797-1.138,0.8385-1.138,1.6023c0,0.1198,0.015,0.1797,0.015,0.2395
		c0.0299,1.0631,0.9583,1.737,1.9766,1.4675c0.6739-0.1797,1.0932-0.6889,1.168-1.5124
		C65.2862,34.4408,64.2979,33.7669,63.1299,34.0514z M64.3428,36.627c-0.1198,0.3894-0.3594,0.554-0.7187,0.569
		c-0.3594,0-0.629-0.1797-0.7637-0.554c-0.1198-0.3295-0.1347-0.6589-0.1347-1.0033c0-0.2995,0.015-0.599,0.1048-0.8835
		c0.1198-0.3594,0.3744-0.5391,0.7187-0.5391c0.3894,0,0.6589,0.1497,0.7787,0.524C64.5225,35.3692,64.5375,35.9981,64.3428,36.627z
		"/>
	<path style="fill:#01C1D6;" d="M88.9305,35.444c-0.0449-0.7637-0.4941-1.2878-1.2279-1.4375
		c-0.7337-0.1497-1.4525,0.2096-1.7519,0.8535c-0.1648,0.3744-0.1947,0.7487-0.1498,1.153
		c0.1199,1.0631,1.0033,1.5723,1.9467,1.3477c0.7486-0.1797,1.1979-0.8236,1.1979-1.7221
		C88.9455,35.6088,88.9455,35.5189,88.9305,35.444z M88.1219,36.642c-0.1198,0.3594-0.3593,0.5391-0.7037,0.554
		c-0.3594,0.015-0.644-0.1497-0.7637-0.5091c-0.2246-0.6439-0.2396-1.3028-0.0299-1.9466c0.1049-0.3594,0.3744-0.524,0.7338-0.524
		c0.3744,0,0.6139,0.1647,0.7487,0.524c0.1199,0.3295,0.1348,0.6589,0.1348,1.0033C88.2418,36.0429,88.2268,36.3425,88.1219,36.642z
		"/>
	<path style="fill:#01C1D6;" d="M75.5585,35.5938c0.584,0.015,1.168,0,1.752,0c0.0599,0,0.1648,0.045,0.1648-0.0899
		c0-1.0183-0.4642-1.707-1.6023-1.4675c-1.2129,0.2395-1.6771,2.0066-0.8086,2.9499c0.5391,0.584,1.6173,0.569,2.2911,0.015
		c0.075-0.0599,0.075-0.1348,0.045-0.2395c-0.1647,0.0599-0.3145,0.1348-0.4642,0.1797c-0.7487,0.2546-1.3477-0.0299-1.5274-0.7188
		c-0.0299-0.1348-0.045-0.2845-0.06-0.4193C75.319,35.6088,75.3938,35.5938,75.5585,35.5938z M75.3489,35.2344
		c0.0449-0.3145,0.1048-0.614,0.3444-0.8236c0.2096-0.1797,0.4492-0.2246,0.7037-0.1497c0.2396,0.0749,0.2995,0.3145,0.3295,0.5391
		c0.015,0.1048,0.0299,0.2246,0.0449,0.3744c0.0299,0.0899,0,0.1348-0.1497,0.1348c-0.3744,0.015-0.7637,0.045-1.138,0.0599
		C75.3789,35.3692,75.334,35.3543,75.3489,35.2344z"/>
	<path style="fill:#01C1D6;" d="M50.4018,35.5938c0.2994,0,0.584,0,0.8835,0c0.3145,0,0.629,0,0.9434,0
		c0.0749,0,0.1497,0.015,0.1497-0.0899c0-1.0332-0.4792-1.6921-1.6022-1.4675c-0.8086,0.1497-1.2579,0.8535-1.2279,1.7819
		c0.0299,1.0631,0.6439,1.6472,1.7071,1.6023c0.3743-0.015,0.7037-0.1797,0.9883-0.3894c0.0749-0.0599,0.1048-0.1348,0.0599-0.1946
		c-0.0449-0.0749-0.1049,0-0.1647,0.015c-0.1049,0.045-0.2097,0.0899-0.3145,0.1198c-0.7487,0.2395-1.3327-0.0299-1.5274-0.7038
		c-0.0449-0.1647-0.0599-0.3295-0.0749-0.4941C50.2221,35.6088,50.282,35.5938,50.4018,35.5938z M50.237,35.2943
		c-0.0898-0.4941,0.3594-1.0781,0.8386-1.0781c0.2845,0,0.4343,0.1048,0.5091,0.3894c0.1947,0.6439,0.1497,0.7038-0.4941,0.7188
		c-0.2395,0-0.4792,0.0299-0.7037,0.0299C50.3269,35.3543,50.252,35.4141,50.237,35.2943z"/>
	<path style="fill:#01C1D6;" d="M23.0139,35.5938c0.5241,0,1.0632,0,1.5873,0c0.4043,0,0.4192,0,0.3743-0.4043
		c-0.1048-0.9734-0.6889-1.3477-1.6022-1.168c-0.6738,0.1348-1.138,0.7188-1.183,1.4225c-0.0449,0.6739,0.03,1.3177,0.659,1.737
		c0.554,0.3744,1.5573,0.2695,2.0365-0.1946c0.0749-0.0749,0.0449-0.1348,0.0449-0.2395c-0.2695,0.1198-0.524,0.2246-0.7936,0.2695
		c-0.554,0.0749-0.9883-0.1647-1.168-0.6589c-0.0749-0.1946-0.1048-0.3894-0.1199-0.599
		C22.8342,35.6238,22.8791,35.5938,23.0139,35.5938z M22.8492,35.2643c0.045-0.2395,0.0749-0.4791,0.2096-0.6889
		c0.1647-0.2395,0.3893-0.3744,0.7038-0.3444c0.2096,0.015,0.3444,0.1048,0.4192,0.2995c0.0599,0.1797,0.0899,0.3594,0.1048,0.584
		c0.0299,0.1198-0.015,0.1946-0.1946,0.1946c-0.3744,0-0.7487,0.0299-1.138,0.0599C22.8641,35.3692,22.8342,35.3543,22.8492,35.2643
		z"/>
</g>
</svg>
