<?xml version="1.0" encoding="utf-8"?>
<!-- Generator: Adobe Illustrator 24.0.2, SVG Export Plug-In . SVG Version: 6.00 Build 0)  -->
<svg version="1.1" id="Capa_1" xmlns="http://www.w3.org/2000/svg" xmlns:xlink="http://www.w3.org/1999/xlink" x="0px" y="0px"
	 viewBox="0 0 119.97 38.64" style="enable-background:new 0 0 119.97 38.64;" xml:space="preserve">
<g>
	<path style="fill:#FF131C;" d="M119.9791,21.4195c-0.1084,0.0059-0.2129,0.0156-0.3213,0.0156c-39.7832,0-79.5645,0-119.3496,0
		c-0.1045,0-0.2129-0.0098-0.3174-0.0156v-0.9609h119.9883V21.4195z"/>
	<path style="fill:#1E191A;" d="M5.3785,6.7536C5.6158,6.7888,5.8512,6.82,6.0885,6.861c0.4326,0.0732,0.8438,0.207,1.2246,0.4238
		c0.1152,0.0645,0.2314,0.1406,0.3281,0.2275C7.862,7.7066,7.9362,7.9508,7.8317,8.234c-0.0459,0.125-0.1064,0.2461-0.168,0.3633
		c-0.1514,0.2881-0.3096,0.5742-0.499,0.918c-0.0391-0.0645-0.0703-0.123-0.1113-0.1777c-0.168-0.2168-0.3232-0.4463-0.5117-0.6484
		c-0.6309-0.6738-1.666-0.8779-2.502-0.4951C3.5123,8.4334,3.1713,8.8298,3.0629,9.4099c-0.0654,0.3613,0.0391,0.6865,0.2236,0.9912
		c0.2207,0.3574,0.5264,0.625,0.8799,0.8408c0.2803,0.166,0.5732,0.3213,0.8604,0.4785c0.5771,0.3135,1.165,0.6094,1.7314,0.9434
		c0.2949,0.1729,0.5771,0.3896,0.8252,0.627c0.7979,0.7578,1.085,1.707,0.9707,2.7871c-0.0264,0.2734-0.0801,0.5459-0.1514,0.8105
		c-0.2891,1.0322-0.917,1.7969-1.8857,2.2578c-1.8818,0.8926-3.7646,0.835-5.6387-0.0293
		c-0.0283-0.0137-0.0547-0.0371-0.1016-0.0713c0.2285-0.7822,0.4502-1.5576,0.6934-2.3916c0.082,0.1279,0.125,0.2109,0.1787,0.2871
		c0.249,0.3359,0.4727,0.6934,0.7549,0.999c0.7822,0.8467,1.8779,0.917,2.7969,0.5664c0.6855-0.2607,0.9844-0.8203,1.0664-1.5039
		c0.0801-0.6357-0.1514-1.1631-0.6738-1.5293C5.2542,15.232,4.887,15.024,4.5228,14.8238c-0.3252-0.1816-0.6631-0.3398-0.999-0.5029
		c-0.6084-0.2998-1.1748-0.6689-1.6475-1.166c-0.7168-0.7568-1.1143-1.6494-1.0215-2.7061
		c0.1084-1.1973,0.6279-2.1719,1.6494-2.8496c0.7021-0.4688,1.4844-0.7178,2.3203-0.7988c0.1123-0.0078,0.2285-0.0313,0.3398-0.0469
		L5.3785,6.7536L5.3785,6.7536z"/>
	<path style="fill:#FF131C;" d="M53.6578,31.8864c-0.0039-0.1055-0.0117-0.2129-0.0117-0.3203v-6.9883v-0.3555
		c0.1084-0.0059,0.1875-0.0137,0.2637-0.0137c2.0371,0,4.0742-0.0059,6.1113,0.002c1.1055,0.0039,2.0225,0.7568,2.249,1.8398
		c0.1377,0.6592-0.002,1.2695-0.3779,1.8291c-0.041,0.0596-0.0801,0.1162-0.127,0.1924c0.2168,0.2715,0.3828,0.5723,0.4727,0.9111
		c0.332,1.2334-0.3955,2.4951-1.6299,2.8311c-0.0752,0.0195-0.1514,0.0469-0.2227,0.0723L53.6578,31.8864L53.6578,31.8864z
		 M55.1929,30.3698h0.3438c1.4697,0,2.9365,0,4.4043,0c0.0732,0,0.1445,0.002,0.2139-0.002
		c0.291-0.0137,0.4219-0.1357,0.4365-0.4258c0.0068-0.168,0.0039-0.3379,0.0039-0.5078c0-0.5361-0.084-0.6201-0.6182-0.6221
		c-1.4961,0-2.9912,0-4.4834,0.002c-0.0986,0-0.1924,0.0078-0.3008,0.0117L55.1929,30.3698L55.1929,30.3698z M55.189,27.2487
		c0.0654,0.0088,0.0986,0.0186,0.1348,0.0186c1.6074,0.002,3.2188,0.0039,4.8311,0c0.2988-0.0029,0.4248-0.1387,0.4365-0.4482
		c0.0068-0.1963,0.0039-0.3916,0.0039-0.5869c-0.004-0.3966-0.1163-0.5157-0.5099-0.5157c-1.5576-0.0039-3.1152-0.002-4.6689,0
		c-0.0762,0-0.1514,0.0156-0.2275,0.0225v1.5097H55.189z"/>
	<path style="fill:#FF131C;" d="M86.0162,31.8864c-0.1455-0.0371-0.2891-0.0762-0.4365-0.1113
		c-1.7705-0.4258-2.9785-2.0371-2.9209-3.9004c0.0547-1.7568,1.4023-3.2988,3.1543-3.6055c0.2275-0.0381,0.459-0.0566,0.6885-0.0576
		c0.8203-0.0088,1.6377-0.0088,2.4561-0.0049c1.8242,0.0098,3.3672,1.2578,3.7568,3.041c0.4648,2.1016-0.9561,4.21-3.0791,4.5801
		c-0.0693,0.0117-0.1328,0.0391-0.2012,0.0586L86.0162,31.8864L86.0162,31.8864z M87.7173,30.1891c0.3828,0,0.7637,0.002,1.1465,0
		c0.1162-0.002,0.2334-0.002,0.3457-0.0215c1.1035-0.1895,1.8613-1.1328,1.8037-2.209c-0.0576-1.165-0.9668-2.041-2.1133-2.0547
		c-0.7822-0.0117-1.5693-0.0117-2.3516,0c-1.1777,0.0156-2.1045,0.9688-2.1084,2.1406c0,1.1855,0.9375,2.1328,2.1309,2.1445
		C86.9537,30.1911,87.3345,30.1891,87.7173,30.1891"/>
	<path style="fill:#FF131C;" d="M93.7603,31.8864c-0.0039-0.0898-0.0117-0.1787-0.0117-0.2676v-7.0449v-0.3086
		c0.0859-0.0127,0.1514-0.0293,0.2207-0.0293c2.0723-0.002,4.1455-0.0176,6.2197,0.0039c1.2871,0.0098,2.293,1.0703,2.2637,2.3184
		c-0.0283,1.084-0.7285,1.9473-1.7949,2.2109c-0.0654,0.0137-0.1377,0.0303-0.2236,0.0498c0.0146,0.0498,0.0166,0.0947,0.043,0.126
		c0.6416,0.9814,1.2861,1.9609,1.9326,2.9414h-1.9756c-0.6279-0.957-1.2588-1.9121-1.8828-2.8721
		c-0.0859-0.1348-0.1846-0.1885-0.3418-0.1885c-0.8975,0.0078-1.7959,0.0039-2.6904,0.0059c-0.0713,0-0.1396,0.0098-0.2412,0.0176
		v0.3242c0,0.7979,0,1.5967,0,2.3965c0,0.1055-0.0146,0.209-0.0254,0.3164L93.7603,31.8864L93.7603,31.8864z M95.2818,27.2761
		c0.0576,0.0137,0.0859,0.0225,0.1123,0.0225c1.624,0.002,3.2549,0.0039,4.8809,0c0.2705,0,0.4072-0.1426,0.418-0.416
		c0.0078-0.2148,0.0039-0.4258,0.0039-0.6406c-0.0068-0.3682-0.1338-0.5-0.502-0.5c-1.5654-0.002-3.1299,0-4.6924,0
		c-0.0693,0-0.1387,0.0156-0.2207,0.0225L95.2818,27.2761L95.2818,27.2761z"/>
	<path style="fill:#FF131C;" d="M73.0406,31.8864c0.0039-0.1074,0.0127-0.2129,0.0127-0.3203v-6.9893v-0.3418
		c0.0771-0.0088,0.1455-0.0244,0.209-0.0264c0.3594-0.002,0.7158,0.0117,1.0684-0.0059c0.1943-0.0088,0.334,0.0645,0.4766,0.1855
		c1.7734,1.5264,3.5518,3.0469,5.3252,4.5703c0.0791,0.0664,0.1611,0.1289,0.2881,0.2314v-4.9619h1.5371v7.6582h-1.5488
		c-0.5615-0.4844-1.1162-0.9668-1.6768-1.4492c-1.29-1.1055-2.5801-2.2109-3.8701-3.3174c-0.0771-0.0635-0.1348-0.166-0.2715-0.1553
		v4.9219h-1.5499L73.0406,31.8864L73.0406,31.8864z"/>
	<path style="fill:#FF131C;" d="M112.1324,31.8806c0-0.418,0.0039-0.834,0.0039-1.2529c0.0039-2.0156,0.0039-4.0342,0.0039-6.0508
		v-0.3545c0.1162-0.0039,0.2168-0.0107,0.3174-0.0107c2.3662,0,4.7266,0,7.0918,0c0.1084,0,0.2129-0.0107,0.3213-0.0146v1.5488
		c-1.9902,0-3.9814-0.0039-5.9717-0.0039c-0.0674,0.0039-0.1367,0.0156-0.2129,0.0234v1.5244h4.9844
		c0.0576,0.3135,0.0459,1.3076-0.0156,1.5283h-2.4668c-0.833,0.002-1.6611,0-2.4873,0.002
		c-0.0576,0.3779-0.043,1.3271,0.0225,1.5283h0.2305c1.8926,0,3.7871,0,5.6748-0.002c0.0801,0,0.1582-0.0078,0.2422-0.0127v1.5469
		L112.1324,31.8806L112.1324,31.8806z"/>
	<path style="fill:#FF131C;" d="M62.4156,31.8864c0.8252-1.6348,1.6465-3.2676,2.4717-4.9043
		c0.4336-0.8555,0.8721-1.708,1.2979-2.5684c0.0811-0.1631,0.1738-0.2148,0.3516-0.2109c0.5938,0.0117,1.1895,0.0039,1.7939,0.0039
		c0.0586,0.1094,0.1123,0.209,0.1631,0.3125c1.208,2.375,2.416,4.7539,3.6191,7.1328c0.041,0.0791,0.084,0.1563,0.127,0.2344
		h-1.8174c-0.0068-0.0342-0.0068-0.0703-0.0254-0.1016c-0.335-0.666-0.6787-1.3291-1.0088-2
		c-0.0732-0.1523-0.1807-0.168-0.3213-0.168c-1.165,0.002-2.3281,0.0059-3.4971-0.0039c-0.1758,0-0.2676,0.0596-0.3457,0.2188
		c-0.3008,0.6133-0.6162,1.2217-0.9248,1.833c-0.0313,0.0693-0.0459,0.1475-0.0703,0.2217H62.4156L62.4156,31.8864z
		 M68.5045,28.0485c-0.4014-0.7852-0.7783-1.5332-1.1855-2.3271c-0.4131,0.8037-0.79,1.5518-1.1875,2.3271H68.5045z"/>
	<path style="fill:#FF131C;" d="M106.4693,31.8864c-0.0078-0.1152-0.0156-0.2305-0.0156-0.3457
		c-0.0029-1.7988-0.0029-3.5938-0.0029-5.3906V25.779h-2.999v-1.4883c0.0039-0.002,0.0068-0.0098,0.0146-0.0156
		c0.0049-0.0059,0.0127-0.0137,0.0205-0.0137c2.4912-0.0059,4.9805-0.0098,7.4707-0.0156c0.0674,0,0.1406,0.0078,0.2295,0.0117
		v1.498c-0.085,0.0059-0.1748,0.0186-0.2686,0.0186c-0.7939,0.002-1.583,0.002-2.377,0.002h-0.3135v6.1104L106.4693,31.8864
		L106.4693,31.8864z"/>
	<path style="fill:#FF131C;" d="M42.816,31.8864c-0.2705-0.0557-0.5342-0.1133-0.8008-0.166
		c-0.5938-0.1201-1.1787-0.2695-1.7295-0.5244c-0.25-0.1162-0.4941-0.251-0.7227-0.4043c-0.1514-0.1016-0.2871-0.2393-0.4033-0.3818
		c-0.2783-0.3516-0.2832-0.7588,0-1.1006c0.1699-0.1992,0.3828-0.374,0.6035-0.5186c0.4707-0.3086,1.0078-0.4844,1.5498-0.6338
		c0.9805-0.2666,1.9863-0.3779,3.002-0.4229c0.0771-0.002,0.1592,0,0.2822,0c-0.5117,1.4043-1.0137,2.7773-1.5137,4.1523H42.816
		V31.8864z"/>
	<path style="fill:#FF131C;" d="M45.9117,31.8864v-4.1563c0.2168,0.0176,0.4023,0.0303,0.5811,0.0488
		c0.9063,0.0938,1.7998,0.2529,2.6475,0.5947c0.3613,0.1426,0.7061,0.3379,1.0352,0.5439c0.1748,0.1094,0.3262,0.2764,0.4502,0.4473
		c0.2324,0.3242,0.2129,0.6953-0.0234,1.0195c-0.1787,0.2402-0.4199,0.4092-0.6738,0.5537
		c-0.5264,0.2959-1.0918,0.4883-1.6748,0.6084c-0.5732,0.1201-1.1572,0.1924-1.7344,0.2881
		c-0.0801,0.0127-0.1553,0.0342-0.2314,0.0518L45.9117,31.8864L45.9117,31.8864z"/>
	<path style="fill:#1E191A;" d="M41.9332,15.4626c0.0186-0.8926,0.2158-1.7305,0.7012-2.4844
		c0.5566-0.8457,1.3359-1.3984,2.2969-1.6816c1.2275-0.3652,2.46-0.3359,3.668,0.0889c1.4492,0.5117,2.2627,1.5654,2.502,3.0742
		c0.1123,0.6982,0.1006,1.3984-0.084,2.0869c-0.3848,1.4375-1.3057,2.3828-2.7041,2.8418
		c-1.3008,0.4258-2.6123,0.3906-3.9004-0.0586c-1.3525-0.4736-2.123-1.4648-2.375-2.8623
		C41.98,16.1354,41.9644,15.7985,41.9332,15.4626 M49.2154,15.1999c-0.0508-0.3594-0.0742-0.7256-0.1475-1.0781
		c-0.1436-0.6943-0.4502-1.3096-0.9922-1.7861c-0.8398-0.7451-2.2383-0.8721-3.1689,0.2002
		c-0.2422,0.2783-0.4326,0.5889-0.5693,0.9287c-0.3828,0.9512-0.5156,1.9355-0.3711,2.9512c0.0742,0.543,0.248,1.0537,0.5654,1.5098
		c0.7715,1.1133,2.29,1.3438,3.3594,0.5098c0.416-0.3242,0.7041-0.748,0.9092-1.2285
		C49.0718,16.5681,49.1763,15.8952,49.2154,15.1999"/>
	<path style="fill:#1E191A;" d="M37.108,16.2878v3.0908h-1.8887v-8.1367c0.0752-0.0059,0.1484-0.0137,0.2168-0.0137
		c0.9844,0,1.9717-0.002,2.9561,0.0059c0.2373,0,0.4805,0.0234,0.7178,0.0566c0.9521,0.1348,1.5029,0.7021,1.6406,1.6563
		c0.1328,0.9482-0.209,1.6631-1.0215,2.167c-0.2363,0.1494-0.4688,0.3154-0.7314,0.4951c0.7705,1.2451,1.5293,2.4707,2.3008,3.7168
		c-0.5518,0.165-1.085,0.2539-1.623,0.1113c-0.376-0.0977-0.6816-0.3145-0.8984-0.6338c-0.1436-0.2217-0.2686-0.457-0.373-0.7012
		c-0.2783-0.6367-0.6689-1.1924-1.1465-1.6885C37.2271,16.3835,37.192,16.3591,37.108,16.2878 M37.1021,12.0407
		c-0.0508,0.4297-0.0332,2.833,0.0205,3.0332c0.3828-0.0078,0.7549-0.0723,1.0996-0.2559c0.3252-0.1689,0.5381-0.4316,0.6162-0.791
		c0.1123-0.5088,0.0693-1.0078-0.1553-1.4805c-0.1357-0.2871-0.3672-0.4805-0.6777-0.5488
		C37.7076,11.9294,37.4088,11.9519,37.1021,12.0407"/>
	<path style="fill:#1E191A;" d="M22.1168,15.9851h1.6768c0.0186,0.0283,0.0322,0.0439,0.0322,0.0596
		c0,0.8262-0.0059,1.6543-0.002,2.4785c0,0.3154-0.1426,0.5459-0.3945,0.7129c-0.0781,0.0518-0.1768,0.0977-0.2666,0.1016
		c-1.2178,0.0693-2.4297,0.1943-3.6494,0.1094c-0.3994-0.0313-0.8027-0.0742-1.1816-0.1816
		c-1.251-0.3535-2.0186-1.2031-2.3193-2.4434c-0.2559-1.0605-0.2012-2.1211,0.1924-3.1484c0.3809-1.0078,1.085-1.7168,2.0879-2.1182
		c1.5186-0.6143,3.0605-0.6299,4.6221-0.1768c0.1768,0.0527,0.3447,0.1387,0.5,0.2402c0.2432,0.1611,0.3135,0.3994,0.2393,0.6777
		c-0.0615,0.2188-0.1621,0.4121-0.3213,0.6006c-0.1006-0.0654-0.1943-0.1299-0.291-0.1904
		c-0.5234-0.3379-1.0645-0.6367-1.6768-0.7939c-0.8252-0.21-1.5488-0.0273-2.1816,0.5322
		c-0.7578,0.6719-1.1729,1.5264-1.3203,2.5195c-0.0928,0.6348-0.0469,1.2578,0.1592,1.8652
		c0.3447,1.0254,1.0303,1.6621,2.123,1.8145c0.4219,0.0605,0.8438,0.1035,1.2656,0.168c0.1865,0.0264,0.3066-0.0371,0.4043-0.1855
		c0.1436-0.2168,0.2744-0.4414,0.2773-0.709c0.0137-0.5244,0.0176-1.0479,0.0244-1.5723
		C22.1207,16.2321,22.1168,16.1179,22.1168,15.9851"/>
	<path style="fill:#1E191A;" d="M33.2183,11.3415c0,0.2705,0.0107,0.501-0.0039,0.7314c-0.0654,1.2324-0.125,2.4658-0.209,3.6992
		c-0.0322,0.5225-0.0898,1.0449-0.1699,1.5635c-0.1904,1.2129-0.8926,1.9551-2.1084,2.207c-0.999,0.2109-2.002,0.1738-2.9824-0.0986
		c-0.2871-0.0791-0.5693-0.2119-0.8213-0.3682c-0.585-0.3555-0.8906-0.9102-0.999-1.5684
		c-0.0654-0.3936-0.1016-0.7949-0.1045-1.1953c-0.0117-1.6074,0-3.2158,0.0029-4.8242c0-0.0527,0.0117-0.1035,0.0195-0.1719h1.8164
		c0.0039,0.1016,0.0117,0.2031,0.0117,0.3047c0.0029,1.6006,0.0029,3.2002,0.0127,4.7988c0.0039,0.3203,0.0449,0.6406,0.1045,0.9531
		c0.1455,0.7158,0.5811,1.1787,1.2891,1.3887c0.4238,0.123,0.8525,0.1758,1.2861,0.0771c0.8555-0.1973,1.3203-0.7783,1.4678-1.6104
		c0.082-0.4688,0.1084-0.9531,0.1084-1.4297c0.0068-1.3789-0.0078-2.7559-0.0146-4.1367v-0.3201
		C32.3736,11.3395,32.8033,11.3395,33.2183,11.3415"/>
	<path style="fill:#1E191A;" d="M10.2408,11.2497c0.0693-0.0068,0.1045-0.0117,0.1387-0.0117
		c1.1201,0.002,2.2422-0.0127,3.3584,0.0137c0.6592,0.0146,0.542-0.0625,0.9482,0.5078c0.0938,0.1299,0.1836,0.2588,0.2998,0.4209
		c-0.3457,0.0322-0.6592,0.0107-0.9736,0.0146c-0.3096,0.0059-0.6191,0.002-0.9336,0.002H12.108v2.4756c0.0977,0,0.2002,0,0.3047,0
		c0.4688,0.0029,0.9395,0.0137,1.4092,0.0107c0.2734-0.0039,0.4785,0.1055,0.6563,0.2969c0.0615,0.0654,0.1357,0.1113,0.2158,0.1699
		c-0.2705,0.3213-0.5303,0.5518-0.9404,0.5391c-0.4258-0.0137-0.8525,0.002-1.2773,0.0039c-0.1143,0-0.2295,0-0.3604,0v2.8906
		c0.0879,0.0039,0.1807,0.0107,0.2744,0.0107c0.6387,0,1.2793,0.0068,1.918-0.0029c0.209-0.0039,0.3604,0.0566,0.4756,0.2578
		c-0.1289,0.1455-0.2637,0.3008-0.3994,0.4482c-0.0957,0.1035-0.2129,0.1484-0.3564,0.1572
		c-1.1914,0.0771-2.3809,0.0391-3.5703-0.0195c-0.0693-0.0039-0.1367-0.0234-0.2168-0.0342v-8.1513L10.2408,11.2497L10.2408,11.2497
		L10.2408,11.2497z"/>
	<path style="fill:#1E191A;" d="M52.0777,19.2751c0.1045-0.4805,0.1982-0.9141,0.2998-1.3848
		c0.1152,0.0762,0.2012,0.1309,0.2852,0.1914c0.252,0.1797,0.4961,0.377,0.7598,0.5381c0.5918,0.3662,1.418,0.2559,1.916-0.2363
		c0.1514-0.1494,0.2148-0.3271,0.1758-0.5313c-0.0898-0.4951-0.3213-0.9268-0.6387-1.3037
		c-0.1182-0.1396-0.3232-0.2109-0.4932-0.2988c-0.3096-0.1563-0.6387-0.2773-0.9336-0.4531c-0.249-0.1484-0.4834-0.3359-0.6895-0.54
		c-0.5654-0.5518-0.7539-1.2373-0.627-2.0029c0.2236-1.3496,1.1855-2.1621,2.5527-2.1797c0.3936-0.0078,0.7783,0.0391,1.1572,0.1514
		c0.3213,0.0957,0.6406,0.1982,0.9912,0.3057c-0.123,0.3965-0.2383,0.7764-0.3525,1.1563
		c-0.1807,0.0459-0.2969-0.0078-0.3975-0.1475c-0.1699-0.2344-0.3721-0.4326-0.6279-0.5703
		c-0.6387-0.3398-1.4336-0.1172-1.7813,0.7217c-0.0283,0.0684-0.0127,0.1836,0.0264,0.2461
		c0.3789,0.6367,0.8145,1.209,1.5107,1.5352c0.3027,0.1465,0.5977,0.3174,0.8799,0.5024c1.0264,0.667,1.3047,1.4756,0.9219,2.6387
		c-0.3525,1.0684-1.0459,1.7773-2.166,2.0264c-0.5693,0.125-1.1318,0.085-1.6914-0.0498
		C52.8023,19.5056,52.4605,19.3884,52.0777,19.2751"/>
	<path style="fill:#FF131C;" d="M45.899,27.4489v-3.082c-0.0225-0.0039-0.043-0.0068-0.0615-0.0127
		c-0.3945,1.0205-0.7471,2.0557-1.1426,3.1064c-0.1885-0.0215-0.3721-0.0391-0.5527-0.0645
		c-0.7246-0.1084-1.4346-0.2715-2.1162-0.541c-0.3633-0.1436-0.7129-0.3184-1.0195-0.5684
		c-0.6699-0.5449-0.668-1.1729,0.0039-1.7148c0.3643-0.293,0.7842-0.4844,1.2246-0.6406c0.7793-0.2813,1.5938-0.4355,2.417-0.5273
		c0.9834-0.1113,1.9678-0.1338,2.9561-0.0566c1.0771,0.0859,2.1416,0.2461,3.1494,0.6426c0.3135,0.123,0.6143,0.2852,0.9023,0.4609
		c0.1768,0.1074,0.3398,0.2627,0.4688,0.4258c0.2949,0.3672,0.293,0.7959-0.0283,1.1406c-0.1807,0.1943-0.3975,0.3584-0.624,0.4922
		c-0.4756,0.2861-1.0059,0.4473-1.5439,0.582c-1.2324,0.3047-2.4912,0.3965-3.7568,0.3838
		C46.0972,27.4763,46.0171,27.4606,45.899,27.4489"/>
</g>
</svg>
