<?xml version="1.0" encoding="utf-8"?>
<!-- Generator: Adobe Illustrator 24.0.2, SVG Export Plug-In . SVG Version: 6.00 Build 0)  -->
<svg version="1.1" id="Capa_1" xmlns="http://www.w3.org/2000/svg" xmlns:xlink="http://www.w3.org/1999/xlink" x="0px" y="0px"
	 viewBox="0 0 119.97 38.64" style="enable-background:new 0 0 119.97 38.64;" xml:space="preserve">
<g>
	<path style="fill:#FC9153;" d="M38.8817,8.4417c1.0195-0.0088,2.0391-0.0244,3.0605-0.0264
		c1.9316-0.0039,3.8633-0.001,5.8711-0.001c0,0.1807,0,0.3457,0,0.5107c0,2.2305-0.0039,4.4609,0,6.6914
		c0.0117,5.209-1.6367,9.8486-4.9082,13.874c-4.1113,5.0615-9.4648,7.9873-15.9102,8.917
		c-9.2539,1.333-19.6094-3.5547-24.293-12.4385c-1.5937-3.0205-2.4766-6.2373-2.5-9.6572
		C0.1708,11.6613,0.1884,7.0109,0.1942,2.3605c0.002-1.4961,0.8457-2.3418,2.3398-2.3418
		c11.9707-0.0049,23.9434-0.0029,35.9141-0.002c0.1094,0,0.2168,0.0117,0.3945,0.0215c0,0.1738,0,0.3398,0,0.5059
		c0,2.4512-0.002,4.9014,0.002,7.3525c0,0.1846,0.0332,0.3701,0.0488,0.5557c-0.1563-0.0137-0.3125-0.0352-0.4668-0.0352
		c-9.2988-0.002-18.5977-0.002-27.8945-0.001c-1.0586,0-1.4023,0.3457-1.4043,1.4209c-0.0039,1.7119-0.0078,3.4238,0.002,5.1353
		c0.0215,4.3906,1.625,8.1133,4.8203,11.1123c2.8457,2.6699,6.2695,4.0498,10.1602,4.0508
		c2.9531,0.0024,5.6934-0.9121,8.1289-2.5996c3.877-2.686,6.1465-6.377,6.502-11.0952c0.1875-2.4692,0.0762-4.959,0.1035-7.4404
		C38.8446,8.8138,38.868,8.6283,38.8817,8.4417z"/>
	<path style="fill:#646464;" d="M56.8348,7.6156c0.0957-0.0117,0.1699-0.0283,0.2461-0.0283
		c2.8242,0.0234,5.6602-0.082,8.4746,0.1055c3.918,0.2607,7.25,1.8193,9.5879,5.1152c1.248,1.7588,1.8594,3.7559,1.9844,5.8984
		c0.127,2.1992-0.0781,4.3633-0.8828,6.4336c-1.3516,3.4766-3.9512,5.5625-7.5078,6.4336c-1.4043,0.3438-2.877,0.5059-4.3262,0.5605
		c-2.4141,0.0898-4.8359,0.0273-7.2539,0.0293c-0.0938,0-0.1875-0.0117-0.3223-0.0195
		C56.8348,23.9701,56.8348,15.8021,56.8348,7.6156z M60.2684,29.0658c0.8203,0,1.5898,0.0313,2.3555-0.0078
		c1.4551-0.0723,2.9316-0.0527,4.3555-0.3096c2.8164-0.5068,4.834-2.0977,5.7734-4.8711c0.6133-1.8135,0.7109-3.6846,0.5117-5.583
		c-0.4238-4.0039-3.5352-7.1699-7.541-7.5039c-1.7773-0.1494-3.5762-0.0742-5.3633-0.0977c-0.0254,0-0.0508,0.0313-0.0918,0.0557
		C60.2684,16.8294,60.2684,22.9173,60.2684,29.0658z"/>
	<path style="fill:#646464;" d="M91.3134,7.6165c0.0723-0.0117,0.1309-0.0293,0.1914-0.0283
		c2.8574,0.0244,5.7266-0.0967,8.5703,0.1084c4.1523,0.3008,7.625,2.0078,9.9004,5.6641c1.4844,2.3877,1.8301,5.0391,1.6113,7.791
		c-0.1445,1.8164-0.5449,3.5664-1.4082,5.1846c-1.5977,2.9912-4.1816,4.6631-7.4199,5.3496
		c-1.3105,0.2783-2.6699,0.415-4.0117,0.4541c-2.4629,0.0703-4.9297,0.0195-7.4355,0.0195
		C91.3134,23.9818,91.3134,15.8236,91.3134,7.6165z M94.7763,29.0658c0.6055,0,1.168,0.002,1.7305-0.001
		c1.6641-0.0078,3.3301,0.0713,4.9746-0.2822c2.6816-0.5771,4.6934-1.9854,5.6895-4.6182c0.7324-1.9355,0.832-3.9482,0.5957-5.9873
		c-0.4355-3.7422-3.1738-6.7549-6.8984-7.2734c-1.9766-0.2754-4.0078-0.1504-6.0137-0.2051c-0.0234,0-0.0469,0.0381-0.0781,0.0654
		C94.7763,16.8353,94.7763,22.9124,94.7763,29.0658z"/>
	<path style="fill:#646464;" d="M85.0829,32.1712c-1.1016,0-2.166,0-3.2598,0c0-5.9688,0-11.918,0-17.9063
		c1.084,0,2.1563,0,3.2598,0C85.0829,20.224,85.0829,26.1712,85.0829,32.1712z"/>
	<path style="fill:#646464;" d="M116.3544,14.2533c1.0879,0,2.1484,0,3.2461,0c0,5.9629,0,11.918,0,17.9053
		c-1.0742,0-2.1465,0-3.2461,0C116.3544,26.1888,116.3544,20.2347,116.3544,14.2533z"/>
	<path style="fill:#646464;" d="M119.786,10.1732c-1.2383,0-2.4277,0-3.6602,0c0-1.2236,0-2.4355,0-3.6855
		c1.2031,0,2.4141,0,3.6602,0C119.786,7.7015,119.786,8.9134,119.786,10.1732z"/>
	<path style="fill:#646464;" d="M81.6434,10.1537c0-1.2305,0-2.4336,0-3.6719c1.2148,0,2.4141,0,3.6523,0c0,1.208,0,2.4219,0,3.6719
		C84.1063,10.1537,82.9071,10.1537,81.6434,10.1537z"/>
</g>
</svg>
